Timestamp,X,Y,Z
"24-Apr-2023 12:45:59.105",-0.676271,3.258426,9.278469
"24-Apr-2023 12:45:59.123",-0.693021,3.245266,9.218349
"24-Apr-2023 12:45:59.141",-0.714557,3.234498,9.147761
"24-Apr-2023 12:45:59.159",-0.719342,3.246462,9.129815
"24-Apr-2023 12:45:59.177",-0.715753,3.253641,9.136993
"24-Apr-2023 12:45:59.195",-0.695414,3.25723,9.157332
"24-Apr-2023 12:45:59.213",-0.669093,3.252444,9.201599
"24-Apr-2023 12:45:59.231",-0.635594,3.250051,9.24467
"24-Apr-2023 12:45:59.249",-0.584148,3.247658,9.266505
"24-Apr-2023 12:45:59.267",-0.523131,3.247658,9.253045
"24-Apr-2023 12:45:59.285",-0.488435,3.244069,9.250652
"24-Apr-2023 12:45:59.303",-0.459721,3.264408,9.282058
"24-Apr-2023 12:45:59.321",-0.48006,3.344568,9.326325
"24-Apr-2023 12:45:59.339",-0.52672,3.403192,9.389735
"24-Apr-2023 12:45:59.357",-0.489631,3.386442,9.370592
"24-Apr-2023 12:45:59.375",-0.438186,3.295515,9.331111
"24-Apr-2023 12:45:59.393",-0.442971,3.313461,9.407681
"24-Apr-2023 12:45:59.411",-0.417847,3.387639,9.536894
"24-Apr-2023 12:45:59.429",-0.393918,3.396013,9.6015
"24-Apr-2023 12:45:59.447",-0.322134,3.348157,9.480662
"24-Apr-2023 12:45:59.465",-0.199801,3.277569,9.280862
"24-Apr-2023 12:45:59.483",-0.105284,3.212963,9.166903
"24-Apr-2023 12:45:59.501",-0.191426,3.138785,9.069994
"24-Apr-2023 12:45:59.519",-0.40349,3.078665,8.991031
"24-Apr-2023 12:45:59.537",-0.639183,3.052344,9.036494
"24-Apr-2023 12:45:59.555",-0.801895,3.043969,9.407681
"24-Apr-2023 12:45:59.573",-0.487238,2.859722,9.331111
"24-Apr-2023 12:45:59.591",-0.242871,2.732903,8.566006
"24-Apr-2023 12:45:59.609",-0.476471,2.632404,8.23819
"24-Apr-2023 12:45:59.627",-0.795913,2.639582,8.491829
"24-Apr-2023 12:45:59.645",-0.77677,2.701796,8.811569
"24-Apr-2023 12:45:59.663",-0.798305,2.711367,9.122637
"24-Apr-2023 12:45:59.681",-0.984048,2.591726,9.218349
"24-Apr-2023 12:45:59.699",-1.476072,2.6336,9.400503
"24-Apr-2023 12:45:59.717",-2.07697,2.982953,9.593125
"24-Apr-2023 12:45:59.735",-2.286342,3.079862,9.613464
"24-Apr-2023 12:45:59.753",-2.40359,2.895614,9.489038
"24-Apr-2023 12:45:59.771",-2.681457,3.035595,9.434002
"24-Apr-2023 12:45:59.789",-2.98056,3.072683,9.378967
"24-Apr-2023 12:45:59.807",-3.029613,3.139982,8.979067
"24-Apr-2023 12:45:59.825",-2.312663,3.042773,7.95434
"24-Apr-2023 12:45:59.843",-1.173081,3.051148,8.540881
"24-Apr-2023 12:45:59.861",-2.467,3.896413,8.461918
"24-Apr-2023 12:45:59.879",-3.047559,4.211368,9.101101
"24-Apr-2023 12:45:59.897",-2.533102,3.258426,9.569197
"24-Apr-2023 12:45:59.915",-2.172683,2.96381,9.987043
"24-Apr-2023 12:45:59.933",-2.130809,3.248855,9.28804
"24-Apr-2023 12:45:59.951",-2.554637,3.411567,8.743374
"24-Apr-2023 12:45:59.969",-2.598905,3.283551,8.857033
"24-Apr-2023 12:45:59.987",-2.449054,2.913561,9.334701
"24-Apr-2023 12:46:00.005",-2.602494,2.842973,9.511769
"24-Apr-2023 12:46:00.023",-2.669493,3.129214,9.847063
"24-Apr-2023 12:46:00.041",-2.322234,3.145964,10.210773
"24-Apr-2023 12:46:00.059",-2.15354,2.960221,9.473484
"24-Apr-2023 12:46:00.077",-2.249253,2.795116,8.800801
"24-Apr-2023 12:46:00.095",-2.670689,2.814259,9.856635
"24-Apr-2023 12:46:00.113",-2.649154,2.553441,10.523335
"24-Apr-2023 12:46:00.131",-1.803889,2.523232,9.483055
"24-Apr-2023 12:46:00.149",-2.035096,2.723331,10.032507
"24-Apr-2023 12:46:00.167",-1.738087,3.203391,10.292129
"24-Apr-2023 12:46:00.185",-1.421038,3.308676,9.687641
"24-Apr-2023 12:46:00.203",-2.754438,2.434697,9.001799
"24-Apr-2023 12:46:00.221",-2.135594,3.089732,9.005388
"24-Apr-2023 12:46:00.239",-0.999602,3.770789,10.00499
"24-Apr-2023 12:46:00.257",-0.643968,3.369693,10.512568
"24-Apr-2023 12:46:00.275",-1.594517,2.405983,10.225129
"24-Apr-2023 12:46:00.293",-1.993221,1.974079,10.796117
"24-Apr-2023 12:46:00.311",-1.30349,1.856531,10.785349
"24-Apr-2023 12:46:00.329",-0.917049,2.262414,10.280165
"24-Apr-2023 12:46:00.347",-0.833001,2.40718,9.854242
"24-Apr-2023 12:46:00.365",-1.369293,2.070988,10.366306
"24-Apr-2023 12:46:00.383",-1.39681,1.839782,9.340682
"24-Apr-2023 12:46:00.401",-0.612862,2.082952,9.505787
"24-Apr-2023 12:46:00.419",0.337687,2.193022,9.079565
"24-Apr-2023 12:46:00.437",0.598505,2.816651,8.085946
"24-Apr-2023 12:46:00.455",-0.426222,3.181856,7.170392
"24-Apr-2023 12:46:00.473",-1.785943,3.410371,6.580262
"24-Apr-2023 12:46:00.491",-0.952942,3.79711,6.540781
"24-Apr-2023 12:46:00.509",-0.511167,3.591029,7.685148
"24-Apr-2023 12:46:00.527",-0.362812,3.277569,8.738588
"24-Apr-2023 12:46:00.545",-0.191426,3.105286,9.353843
"24-Apr-2023 12:46:00.563",-0.451346,3.471387,9.595518
"24-Apr-2023 12:46:00.581",-0.119641,3.442674,9.357432
"24-Apr-2023 12:46:00.599",0.344866,3.364907,8.460722
"24-Apr-2023 12:46:00.617",0.788734,3.683451,7.706684
"24-Apr-2023 12:46:00.635",0.948156,4.022036,7.774879
"24-Apr-2023 12:46:00.653",0.179462,4.427918,8.459525
"24-Apr-2023 12:46:00.671",-0.131605,4.311866,8.59472
"24-Apr-2023 12:46:00.689",0.041874,4.071089,7.993822
"24-Apr-2023 12:46:00.707",0.062213,4.134499,7.58106
"24-Apr-2023 12:46:00.725",0.122034,4.557131,7.687541
"24-Apr-2023 12:46:00.743",-0.362812,4.868497,8.59113
"24-Apr-2023 12:46:00.761",-0.754038,5.00728,9.704391
"24-Apr-2023 12:46:00.779",-0.548256,4.892425,9.477073
"24-Apr-2023 12:46:00.797",-0.4669,4.667201,9.171689
"24-Apr-2023 12:46:00.815",-0.860818,4.541577,8.980264
"24-Apr-2023 12:46:00.833",-0.744467,4.633701,8.76491
"24-Apr-2023 12:46:00.851",-0.132802,4.79073,9.237492
"24-Apr-2023 12:46:00.869",-0.040678,4.621737,9.829117
"24-Apr-2023 12:46:00.887",0.039482,4.325027,10.282557
"24-Apr-2023 12:46:00.905",-0.081356,4.362116,10.375877
"24-Apr-2023 12:46:00.923",-0.037089,4.817051,9.515358
"24-Apr-2023 12:46:00.941",0.298206,5.203492,8.720642
"24-Apr-2023 12:46:00.959",0.451346,5.204689,9.302397
"24-Apr-2023 12:46:00.977",0.490828,4.333402,10.931312
"24-Apr-2023 12:46:00.995",0.579362,3.369693,12.077174
"24-Apr-2023 12:46:01.013",0.798305,3.017648,11.935699
"24-Apr-2023 12:46:01.031",1.214956,3.008077,11.203196
"24-Apr-2023 12:46:01.048",1.521536,2.98056,10.537692
"24-Apr-2023 12:46:01.067",0.942174,3.003292,9.645767
"24-Apr-2023 12:46:01.085",0.02991,3.133999,8.070393
"24-Apr-2023 12:46:01.103",-0.694218,3.357728,7.045965
"24-Apr-2023 12:46:01.121",-0.758824,3.327818,7.136893
"24-Apr-2023 12:46:01.139",-0.317348,3.818646,7.977073
"24-Apr-2023 12:46:01.157",0.314955,3.654737,8.129017
"24-Apr-2023 12:46:01.175",0.696611,3.661916,8.299206
"24-Apr-2023 12:46:01.193",0.74686,3.558726,8.385348
"24-Apr-2023 12:46:01.211",0.460917,3.301497,8.370991
"24-Apr-2023 12:46:01.229",0.330509,3.052344,8.7015
"24-Apr-2023 12:46:01.247",0.434596,2.925525,9.276076
"24-Apr-2023 12:46:01.265",0.49681,2.799901,9.442377
"24-Apr-2023 12:46:01.283",0.442971,2.860919,9.07478
"24-Apr-2023 12:46:01.301",0.355633,3.024827,8.33151
"24-Apr-2023 12:46:01.319",0.155533,3.200999,7.821539
"24-Apr-2023 12:46:01.337",0.038285,3.385246,7.663613
"24-Apr-2023 12:46:01.355",0.112463,3.502494,7.910073
"24-Apr-2023 12:46:01.373",0.632004,3.728915,8.555239
"24-Apr-2023 12:46:01.391",1.076172,4.087838,8.562417
"24-Apr-2023 12:46:01.409",1.124028,4.438686,8.123034
"24-Apr-2023 12:46:01.427",0.94337,4.604987,7.985447
"24-Apr-2023 12:46:01.445",0.688236,4.633701,8.574381
"24-Apr-2023 12:46:01.463",0.586541,4.64088,9.392128
"24-Apr-2023 12:46:01.481",0.657129,4.722236,9.413663
"24-Apr-2023 12:46:01.499",0.695414,5.037191,8.995817
"24-Apr-2023 12:46:01.517",0.750449,5.135296,8.85823
"24-Apr-2023 12:46:01.535",0.451346,5.344967,8.805588
"24-Apr-2023 12:46:01.553",0.106481,5.30758,8.52772
"24-Apr-2023 12:46:01.571",-0.236889,5.331807,8.689237
"24-Apr-2023 12:46:01.589",-0.548256,4.984549,9.284451
"24-Apr-2023 12:46:01.607",-0.616451,5.119743,9.495019
"24-Apr-2023 12:46:01.625",-0.35683,5.469394,9.065208
"24-Apr-2023 12:46:01.643",-0.414257,5.59741,8.874979
"24-Apr-2023 12:46:01.661",-0.553041,5.374878,9.023335
"24-Apr-2023 12:46:01.679",-0.492024,4.73061,9.501001
"24-Apr-2023 12:46:01.697",-0.445364,4.153641,10.511371
"24-Apr-2023 12:46:01.715",-0.22014,3.339782,11.744272
"24-Apr-2023 12:46:01.733",0.014357,2.455036,12.763017
"24-Apr-2023 12:46:01.751",-0.102891,2.137987,12.602399
"24-Apr-2023 12:46:01.769",-0.15673,1.995614,11.222338
"24-Apr-2023 12:46:01.787",0.008375,2.070988,9.573982
"24-Apr-2023 12:46:01.805",0.396311,2.426322,8.305188
"24-Apr-2023 12:46:01.823",0.853639,3.006881,7.553244
"24-Apr-2023 12:46:01.841",1.131207,3.530012,7.191927
"24-Apr-2023 12:46:01.859",1.562214,3.828217,7.275676
"24-Apr-2023 12:46:01.877",1.873281,3.902395,7.408478
"24-Apr-2023 12:46:01.895",1.667498,3.961019,7.639685
"24-Apr-2023 12:46:01.913",1.19701,3.914359,8.17478
"24-Apr-2023 12:46:01.931",1.001994,3.742075,9.399306
"24-Apr-2023 12:46:01.949",1.033101,3.671487,10.240683
"24-Apr-2023 12:46:01.967",1.110868,3.805485,9.718748
"24-Apr-2023 12:46:01.985",1.04028,4.171587,8.588737
"24-Apr-2023 12:46:02.003",0.609272,4.455436,7.544869
"24-Apr-2023 12:46:02.021",0.138784,4.662415,7.075876
"24-Apr-2023 12:46:02.039",0.021535,4.860122,6.935596
"24-Apr-2023 12:46:02.057",0.184247,5.101797,7.109375
"24-Apr-2023 12:46:02.075",0.454935,5.1676,7.816753
"24-Apr-2023 12:46:02.093",0.634397,5.152046,8.287242
"24-Apr-2023 12:46:02.111",0.779163,5.110172,8.549256
"24-Apr-2023 12:46:02.129",0.665504,5.102993,8.387741
"24-Apr-2023 12:46:02.147",0.523131,5.137689,8.226225
"24-Apr-2023 12:46:02.165",0.252443,5.131707,8.211868
"24-Apr-2023 12:46:02.183",0.050249,5.034798,8.625827
"24-Apr-2023 12:46:02.201",0.120838,4.91755,9.18126
"24-Apr-2023 12:46:02.219",0.214158,4.787141,9.754641
"24-Apr-2023 12:46:02.237",0.317348,4.603791,10.091131
"24-Apr-2023 12:46:02.255",0.596112,4.500899,10.222736
"24-Apr-2023 12:46:02.273",0.76361,4.537988,10.412068
"24-Apr-2023 12:46:02.291",0.576969,4.711468,10.110274
"24-Apr-2023 12:46:02.309",0.361615,4.861318,9.564411
"24-Apr-2023 12:46:02.327",0.505185,4.797908,9.279665
"24-Apr-2023 12:46:02.345",1.287937,4.597809,9.608679
"24-Apr-2023 12:46:02.363",1.994418,4.191926,10.369895
"24-Apr-2023 12:46:02.381",2.218147,3.742075,10.865508
"24-Apr-2023 12:46:02.399",1.886442,3.342175,10.580763
"24-Apr-2023 12:46:02.417",1.377668,3.165106,9.921241
"24-Apr-2023 12:46:02.435",1.198206,3.230909,9.279665
"24-Apr-2023 12:46:02.453",1.24367,3.393621,8.809176
"24-Apr-2023 12:46:02.470",1.277169,3.535994,8.500203
"24-Apr-2023 12:46:02.489",1.195813,3.740879,8.235796
"24-Apr-2023 12:46:02.507",0.879961,3.801896,8.012965
"24-Apr-2023 12:46:02.525",0.486042,3.835396,7.796414
"24-Apr-2023 12:46:02.543",0.316152,3.867699,7.752147
"24-Apr-2023 12:46:02.561",0.223729,3.943073,8.172386
"24-Apr-2023 12:46:02.579",0.292223,4.019643,8.59472
"24-Apr-2023 12:46:02.597",0.211765,4.078267,8.822337
"24-Apr-2023 12:46:02.615",-0.005982,4.090231,9.008977
"24-Apr-2023 12:46:02.633",-0.153141,4.057928,9.31795
"24-Apr-2023 12:46:02.651",-0.177069,4.030411,9.710373
"24-Apr-2023 12:46:02.669",-0.154337,4.062714,10.010972
"24-Apr-2023 12:46:02.687",-0.055035,4.12732,9.953544
"24-Apr-2023 12:46:02.705",-0.040678,4.210171,9.733106
"24-Apr-2023 12:46:02.723",0.074178,4.328616,9.337093
"24-Apr-2023 12:46:02.741",-0.034696,4.40399,8.857033
"24-Apr-2023 12:46:02.759",-0.282652,4.472186,8.332705
"24-Apr-2023 12:46:02.777",-0.41665,4.546363,8.090732
"24-Apr-2023 12:46:02.795",-0.25005,4.575077,8.359027
"24-Apr-2023 12:46:02.813",-0.20339,4.488935,8.652147
"24-Apr-2023 12:46:02.831",-0.358026,4.342973,8.68804
"24-Apr-2023 12:46:02.849",-0.439382,4.184748,8.579166
"24-Apr-2023 12:46:02.867",-0.535095,4.183551,8.2681
"24-Apr-2023 12:46:02.885",-0.659522,4.226921,7.883752
"24-Apr-2023 12:46:02.903",-0.52672,4.362116,7.730612
"24-Apr-2023 12:46:02.921",-0.31017,4.460221,8.053643
"24-Apr-2023 12:46:02.939",-0.190229,4.453043,8.320742
"24-Apr-2023 12:46:02.957",-0.165105,4.378865,8.375776
"24-Apr-2023 12:46:02.975",-0.458525,4.205087,8.335098
"24-Apr-2023 12:46:02.993",-0.628415,4.117749,8.198708
"24-Apr-2023 12:46:03.011",-0.635594,4.123731,7.888538
"24-Apr-2023 12:46:03.029",-0.514756,4.165605,7.618149
"24-Apr-2023 12:46:03.047",-0.529113,4.199105,7.288837
"24-Apr-2023 12:46:03.065",-0.459721,4.345366,6.812366
"24-Apr-2023 12:46:03.083",-0.16989,4.51406,6.644868
"24-Apr-2023 12:46:03.101",0.285045,4.59063,7.037591
"24-Apr-2023 12:46:03.119",0.427418,4.490132,7.654041
"24-Apr-2023 12:46:03.137",0.377169,4.382455,8.107481
"24-Apr-2023 12:46:03.155",0.392722,4.504488,8.053643
"24-Apr-2023 12:46:03.173",0.518345,4.625326,7.768897
"24-Apr-2023 12:46:03.191",0.60688,4.583452,7.959126
"24-Apr-2023 12:46:03.209",0.6667,4.319045,9.163314
"24-Apr-2023 12:46:03.227",0.811466,4.123731,10.177273
"24-Apr-2023 12:46:03.245",1.347757,4.21735,10.796117
"24-Apr-2023 12:46:03.263",1.919941,4.535595,10.953146
"24-Apr-2023 12:46:03.281",2.020739,4.766503,10.480264
"24-Apr-2023 12:46:03.299",1.954637,4.882854,9.823135
"24-Apr-2023 12:46:03.317",2.019542,4.951049,9.380164
"24-Apr-2023 12:46:03.335",2.121237,4.945067,9.144172
"24-Apr-2023 12:46:03.353",2.266003,4.952246,9.209974
"24-Apr-2023 12:46:03.371",2.303092,4.911568,9.382557
"24-Apr-2023 12:46:03.389",2.011168,4.630112,9.654142
"24-Apr-2023 12:46:03.407",1.593321,4.365705,9.560822
"24-Apr-2023 12:46:03.425",1.175474,4.151248,9.236296
"24-Apr-2023 12:46:03.443",1.230509,4.153641,9.225528
"24-Apr-2023 12:46:03.461",1.686641,4.317849,9.298808
"24-Apr-2023 12:46:03.479",1.718944,4.375276,9.200403
"24-Apr-2023 12:46:03.497",1.335793,4.380062,8.40449
"24-Apr-2023 12:46:03.515",1.16351,4.389633,8.093124
"24-Apr-2023 12:46:03.533",1.097707,4.429115,7.989037
"24-Apr-2023 12:46:03.551",1.18026,4.554738,7.966305
"24-Apr-2023 12:46:03.569",1.458126,4.699504,8.20469
"24-Apr-2023 12:46:03.587",1.577767,4.661219,8.677272
"24-Apr-2023 12:46:03.605",1.377668,4.496114,9.095119
"24-Apr-2023 12:46:03.623",1.189831,4.425526,9.038888
"24-Apr-2023 12:46:03.641",1.149153,4.526024,8.703893
"24-Apr-2023 12:46:03.659",1.186242,4.609773,8.478668
"24-Apr-2023 12:46:03.677",1.234098,4.713861,8.393723
"24-Apr-2023 12:46:03.695",1.317847,4.818247,8.37458
"24-Apr-2023 12:46:03.713",1.223331,4.866104,8.390134
"24-Apr-2023 12:46:03.731",1.022334,4.785944,8.453544
"24-Apr-2023 12:46:03.749",1.13001,4.663611,8.664112
"24-Apr-2023 12:46:03.767",1.450948,4.662415,8.976674
"24-Apr-2023 12:46:03.785",1.614856,4.679165,9.146564
"24-Apr-2023 12:46:03.803",1.3334,4.675575,9.120243
"24-Apr-2023 12:46:03.821",0.7002,4.858925,8.894122
"24-Apr-2023 12:46:03.839",0.379561,5.15085,8.372188
"24-Apr-2023 12:46:03.857",0.897907,5.376074,7.815557
"24-Apr-2023 12:46:03.875",1.771586,5.293223,8.485847
"24-Apr-2023 12:46:03.892",2.309074,4.462614,10.211968
"24-Apr-2023 12:46:03.911",2.315056,3.484548,12.063714
"24-Apr-2023 12:46:03.929",2.219343,2.972185,12.092728
"24-Apr-2023 12:46:03.947",2.042274,3.006881,10.296914
"24-Apr-2023 12:46:03.965",1.840978,3.083451,8.661719
"24-Apr-2023 12:46:03.983",1.248455,3.144767,7.546065
"24-Apr-2023 12:46:04.001",0.732503,3.218945,6.713064
"24-Apr-2023 12:46:04.019",0.942174,3.440281,6.957132
"24-Apr-2023 12:46:04.037",1.468894,3.580261,8.225029
"24-Apr-2023 12:46:04.055",1.758426,3.447459,9.157332
"24-Apr-2023 12:46:04.073",1.849353,3.281158,9.459127
"24-Apr-2023 12:46:04.091",1.787139,3.364907,9.18485
"24-Apr-2023 12:46:04.109",1.461716,3.437888,8.874979
"24-Apr-2023 12:46:04.127",1.101297,3.324229,9.133404
"24-Apr-2023 12:46:04.145",0.905085,3.215355,9.772587
"24-Apr-2023 12:46:04.163",0.873978,3.208177,10.006186
"24-Apr-2023 12:46:04.181",0.882353,3.302693,9.504591
"24-Apr-2023 12:46:04.199",0.8668,3.447459,8.787642
"24-Apr-2023 12:46:04.217",0.773181,3.465405,8.633005
"24-Apr-2023 12:46:04.235",0.704985,3.330211,8.953942
"24-Apr-2023 12:46:04.253",0.574577,3.267998,8.776874
"24-Apr-2023 12:46:04.271",0.614058,3.436692,8.202297
"24-Apr-2023 12:46:04.289",0.726521,3.731308,7.729415
"24-Apr-2023 12:46:04.307",0.882353,3.933501,7.501798
"24-Apr-2023 12:46:04.325",1.104886,4.001697,7.744969
"24-Apr-2023 12:46:04.343",1.354936,4.071089,8.126624
"24-Apr-2023 12:46:04.361",1.19701,4.045964,8.183154
"24-Apr-2023 12:46:04.379",0.787538,4.011268,8.150851
"24-Apr-2023 12:46:04.397",0.642772,4.055535,8.252546
"24-Apr-2023 12:46:04.415",0.854836,4.253242,8.506186
"24-Apr-2023 12:46:04.433",1.115654,4.456632,8.780462
"24-Apr-2023 12:46:04.451",1.259223,4.575077,8.840283
"24-Apr-2023 12:46:04.469",1.128814,4.535595,8.849854
"24-Apr-2023 12:46:04.487",0.895514,4.412365,9.043674
"24-Apr-2023 12:46:04.505",0.798305,4.213761,9.536894
"24-Apr-2023 12:46:04.523",0.852443,4.17398,9.893723
"24-Apr-2023 12:46:04.541",0.731306,4.351348,9.477073
"24-Apr-2023 12:46:04.559",0.570987,4.567898,8.732606
"24-Apr-2023 12:46:04.577",0.276371,4.499703,9.113065
"24-Apr-2023 12:46:04.595",-0.028714,4.172783,9.556036
"24-Apr-2023 12:46:04.613",-0.145962,3.846163,9.668499
"24-Apr-2023 12:46:04.631",0.224925,3.622135,10.077971
"24-Apr-2023 12:46:04.649",0.677468,3.220141,11.343176
"24-Apr-2023 12:46:04.667",0.987638,2.659921,12.355938
"24-Apr-2023 12:46:04.685",1.066601,2.315056,12.452847
"24-Apr-2023 12:46:04.703",1.065404,2.350948,11.575579
"24-Apr-2023 12:46:04.721",1.346561,2.652743,10.282557
"24-Apr-2023 12:46:04.739",1.539482,3.046362,9.128618
"24-Apr-2023 12:46:04.757",1.557428,3.378067,8.427222
"24-Apr-2023 12:46:04.775",1.655534,3.718147,8.028518
"24-Apr-2023 12:46:04.793",2.03031,3.811467,8.071589
"24-Apr-2023 12:46:04.811",1.72014,3.713362,8.081161
"24-Apr-2023 12:46:04.829",0.975673,3.669094,7.78804
"24-Apr-2023 12:46:04.847",0.762413,3.785146,8.239386
"24-Apr-2023 12:46:04.865",1.316651,3.762414,9.697213
"24-Apr-2023 12:46:04.883",1.50359,3.464209,11.064412
"24-Apr-2023 12:46:04.901",1.103689,3.18066,10.899008
"24-Apr-2023 12:46:04.919",0.539881,3.169892,9.587143
"24-Apr-2023 12:46:04.937",0.11007,3.267998,8.488239
"24-Apr-2023 12:46:04.955",0,3.506083,7.92443
"24-Apr-2023 12:46:04.973",0.301795,3.779164,7.898109
"24-Apr-2023 12:46:04.991",0.523131,4.0005,7.962716
"24-Apr-2023 12:46:05.009",0.30658,4.024428,7.736594
"24-Apr-2023 12:46:05.027",-0.096909,3.969394,7.43121
"24-Apr-2023 12:46:05.045",-0.341276,3.889234,7.469495
"24-Apr-2023 12:46:05.063",-0.435793,3.806682,7.965108
"24-Apr-2023 12:46:05.081",-0.240479,3.694219,8.870193
"24-Apr-2023 12:46:05.099",-0.192622,3.534797,9.624231
"24-Apr-2023 12:46:05.117",-0.259621,3.343371,10.024133
"24-Apr-2023 12:46:05.135",-0.252443,3.17707,10.092328
"24-Apr-2023 12:46:05.153",0.025125,3.154338,10.025329
"24-Apr-2023 12:46:05.171",0.407079,3.300301,9.976275
"24-Apr-2023 12:46:05.189",0.308973,3.498905,9.920045
"24-Apr-2023 12:46:05.207",0.20339,3.768397,8.825927
"24-Apr-2023 12:46:05.225",1.353739,4.013661,8.530113
"24-Apr-2023 12:46:05.243",2.894418,3.836592,10.365109
"24-Apr-2023 12:46:05.261",3.838985,3.324229,11.775379
"24-Apr-2023 12:46:05.279",3.235694,2.591726,11.810075
"24-Apr-2023 12:46:05.297",2.258825,2.129612,10.640583
"24-Apr-2023 12:46:05.315",1.784747,2.109273,9.660124
"24-Apr-2023 12:46:05.333",1.773979,2.344966,9.182457
"24-Apr-2023 12:46:05.351",1.752443,2.618047,8.682058
"24-Apr-2023 12:46:05.369",1.466501,2.780759,8.252546
"24-Apr-2023 12:46:05.387",1.302294,2.924328,7.934001
"24-Apr-2023 12:46:05.405",1.434198,3.002095,8.336295
"24-Apr-2023 12:46:05.423",1.644766,2.996113,9.297611
"24-Apr-2023 12:46:05.441",1.625624,2.96381,9.722338
"24-Apr-2023 12:46:05.459",1.171885,2.942275,9.394521
"24-Apr-2023 12:46:05.477",0.875175,2.987738,9.235099
"24-Apr-2023 12:46:05.495",1.16351,3.101696,9.468699
"24-Apr-2023 12:46:05.513",1.342972,3.189034,9.64457
"24-Apr-2023 12:46:05.531",1.035494,3.1005,9.61466
"24-Apr-2023 12:46:05.549",0.531506,2.909971,9.353843
"24-Apr-2023 12:46:05.567",0.08016,2.752045,9.250652
"24-Apr-2023 12:46:05.585",0.025125,2.871686,9.109476
"24-Apr-2023 12:46:05.603",0.154337,3.105286,8.882157
"24-Apr-2023 12:46:05.621",0.175872,3.275176,8.766106
"24-Apr-2023 12:46:05.639",0.064606,3.370889,8.76132
"24-Apr-2023 12:46:05.657",-0.070588,3.294319,8.952746
"24-Apr-2023 12:46:05.675",-0.098106,3.179463,9.048459
"24-Apr-2023 12:46:05.693",0.072981,3.1005,9.010174
"24-Apr-2023 12:46:05.711",0.338884,3.092125,8.983852
"24-Apr-2023 12:46:05.729",0.464507,3.171088,8.944371
"24-Apr-2023 12:46:05.747",0.324527,3.151946,8.94796
"24-Apr-2023 12:46:05.765",0.038285,3.118446,8.829515
"24-Apr-2023 12:46:05.783",-0.108873,3.154338,8.872586
"24-Apr-2023 12:46:05.801",0.119641,3.271587,9.270094
"24-Apr-2023 12:46:05.819",0.519542,3.392424,9.853045
"24-Apr-2023 12:46:05.837",0.632004,3.392424,10.216755
"24-Apr-2023 12:46:05.855",0.627219,3.327818,10.353146
"24-Apr-2023 12:46:05.873",0.56022,3.24048,10.367502
"24-Apr-2023 12:46:05.891",0.65354,3.277569,10.179666
"24-Apr-2023 12:46:05.909",0.871586,3.417549,10.026525
"24-Apr-2023 12:46:05.927",1.003191,3.614957,9.84467
"24-Apr-2023 12:46:05.945",1.033101,3.706183,9.481859
"24-Apr-2023 12:46:05.963",1.010369,3.968197,8.811569
"24-Apr-2023 12:46:05.981",1.173081,4.439882,7.984251
"24-Apr-2023 12:46:05.999",1.370489,4.814658,7.727023
"24-Apr-2023 12:46:06.017",1.655534,4.875675,8.196315
"24-Apr-2023 12:46:06.035",1.819443,4.532006,9.165708
"24-Apr-2023 12:46:06.053",1.446162,3.958626,10.061221
"24-Apr-2023 12:46:06.071",1.010369,3.434299,10.493424
"24-Apr-2023 12:46:06.089",0.715753,3.293122,10.054043
"24-Apr-2023 12:46:06.107",0.679861,3.352943,9.382557
"24-Apr-2023 12:46:06.125",0.799502,3.483351,9.07478
"24-Apr-2023 12:46:06.143",0.979263,3.718147,8.953942
"24-Apr-2023 12:46:06.161",1.159921,3.929912,8.59472
"24-Apr-2023 12:46:06.179",1.283151,4.065106,8.137691
"24-Apr-2023 12:46:06.197",1.386042,4.108177,7.785647
"24-Apr-2023 12:46:06.215",1.419841,4.19073,7.826324
"24-Apr-2023 12:46:06.233",1.340579,4.17398,8.153244
"24-Apr-2023 12:46:06.251",1.213759,4.074678,8.852247
"24-Apr-2023 12:46:06.269",1.027119,3.935894,9.44477
"24-Apr-2023 12:46:06.287",0.982852,3.896413,9.577572
"24-Apr-2023 12:46:06.305",1.051047,4.0005,9.41486
"24-Apr-2023 12:46:06.323",0.882353,3.939483,9.148957
"24-Apr-2023 12:46:06.341",0.641576,3.856931,8.877372
"24-Apr-2023 12:46:06.359",0.684646,3.944269,8.659326
"24-Apr-2023 12:46:06.377",1.012762,4.218546,8.445168
"24-Apr-2023 12:46:06.395",1.22692,4.482953,8.213064
"24-Apr-2023 12:46:06.413",1.212563,4.616951,8.184351
"24-Apr-2023 12:46:06.431",1.015155,4.576273,8.319545
"24-Apr-2023 12:46:06.449",0.727717,4.436293,8.387741
"24-Apr-2023 12:46:06.467",0.617647,4.335794,8.601898
"24-Apr-2023 12:46:06.485",0.781556,4.356133,8.796016
"24-Apr-2023 12:46:06.503",0.926621,4.389633,8.85464
"24-Apr-2023 12:46:06.521",0.907478,4.421936,8.810373
"24-Apr-2023 12:46:06.539",0.704985,4.412365,8.702696
"24-Apr-2023 12:46:06.557",0.661915,4.429115,8.781659
"24-Apr-2023 12:46:06.575",0.797109,4.441079,8.988638
"24-Apr-2023 12:46:06.593",0.974477,4.492525,8.988638
"24-Apr-2023 12:46:06.611",1.068994,4.447061,9.153743
"24-Apr-2023 12:46:06.629",1.191028,4.52722,9.475877
"24-Apr-2023 12:46:06.647",0.962513,4.825426,9.423235
"24-Apr-2023 12:46:06.665",0.456132,5.073083,8.689237
"24-Apr-2023 12:46:06.683",0.328116,5.00728,7.760522
"24-Apr-2023 12:46:06.701",0.794716,4.857729,7.61456
"24-Apr-2023 12:46:06.719",1.371686,4.274778,9.047262
"24-Apr-2023 12:46:06.737",1.561018,3.713362,10.657333
"24-Apr-2023 12:46:06.755",2.094916,3.749254,10.92174
"24-Apr-2023 12:46:06.773",2.439483,4.142873,9.722338
"24-Apr-2023 12:46:06.791",2.337788,4.375276,8.809176
"24-Apr-2023 12:46:06.809",2.175076,4.314259,8.897711
"24-Apr-2023 12:46:06.827",1.94028,4.056732,9.341879
"24-Apr-2023 12:46:06.845",1.726122,3.916752,9.102298
"24-Apr-2023 12:46:06.863",1.442573,3.914359,8.42124
"24-Apr-2023 12:46:06.881",1.299901,4.020839,8.059625
"24-Apr-2023 12:46:06.899",1.388435,4.038785,8.461918
"24-Apr-2023 12:46:06.917",1.522732,3.946662,9.010174
"24-Apr-2023 12:46:06.935",1.442573,3.792325,9.276076
"24-Apr-2023 12:46:06.953",1.297508,3.726522,9.182457
"24-Apr-2023 12:46:06.971",1.416252,3.825824,9.162118
"24-Apr-2023 12:46:06.988",1.521536,3.880859,9.032906
"24-Apr-2023 12:46:07.007",1.630409,3.915555,8.973084
"24-Apr-2023 12:46:07.025",1.394417,3.879663,8.958728
"24-Apr-2023 12:46:07.043",0.905085,3.815057,8.463115
"24-Apr-2023 12:46:07.061",0.736092,3.89043,7.965108
"24-Apr-2023 12:46:07.079",0.851247,4.089035,7.846663
"24-Apr-2023 12:46:07.097",1.102493,4.258028,7.800004
"24-Apr-2023 12:46:07.115",1.370489,4.413561,7.717451
"24-Apr-2023 12:46:07.133",1.400399,4.476971,7.510173
"24-Apr-2023 12:46:07.151",1.131207,4.421936,7.346265
"24-Apr-2023 12:46:07.169",0.824627,4.258028,7.615756
"24-Apr-2023 12:46:07.187",0.622433,4.256832,7.807182
"24-Apr-2023 12:46:07.205",0.524327,4.402794,7.843074
"24-Apr-2023 12:46:07.223",0.468096,4.579863,7.886145
"24-Apr-2023 12:46:07.241",0.578166,4.762914,8.088339
"24-Apr-2023 12:46:07.259",0.716949,4.892425,8.373384
"24-Apr-2023 12:46:07.277",0.634397,4.901996,8.532506
"24-Apr-2023 12:46:07.295",0.554238,4.907979,8.519346
"24-Apr-2023 12:46:07.313",0.51356,4.996513,8.524132
"24-Apr-2023 12:46:07.331",0.76002,5.102993,8.870193
"24-Apr-2023 12:46:07.349",1.009173,5.168796,9.251849
"24-Apr-2023 12:46:07.367",1.161117,5.171189,9.467502
"24-Apr-2023 12:46:07.385",0.921835,5.221438,9.322736
"24-Apr-2023 12:46:07.403",0.561416,5.383253,8.738588
"24-Apr-2023 12:46:07.421",0.609272,5.626124,8.23101
"24-Apr-2023 12:46:07.439",0.844068,5.84746,8.447561
"24-Apr-2023 12:46:07.457",0.974477,5.845068,8.490632
"24-Apr-2023 12:46:07.475",0.964906,5.563911,8.849854
"24-Apr-2023 12:46:07.493",0.957727,5.098208,9.629018
"24-Apr-2023 12:46:07.511",1.122832,4.4339,10.857134
"24-Apr-2023 12:46:07.529",1.204188,3.791128,11.889038
"24-Apr-2023 12:46:07.547",1.051047,3.545565,11.376676
"24-Apr-2023 12:46:07.565",0.864407,3.755236,9.583553
"24-Apr-2023 12:46:07.583",0.783949,3.98734,8.526525
"24-Apr-2023 12:46:07.601",0.699003,4.170391,8.53131
"24-Apr-2023 12:46:07.619",0.675075,4.567898,8.290832
"24-Apr-2023 12:46:07.637",0.912264,5.000102,7.729415
"24-Apr-2023 12:46:07.655",1.241277,5.204689,7.067501
"24-Apr-2023 12:46:07.673",1.074976,5.193921,6.485746
"24-Apr-2023 12:46:07.691",0.630808,4.890032,6.868598
"24-Apr-2023 12:46:07.709",0.402293,4.445865,8.560024
"24-Apr-2023 12:46:07.727",0.253639,4.047161,9.891331
"24-Apr-2023 12:46:07.745",0.265603,3.977769,9.935597
"24-Apr-2023 12:46:07.763",0.257228,4.207479,8.945567
"24-Apr-2023 12:46:07.781",-0.102891,4.441079,7.845467
"24-Apr-2023 12:46:07.799",-0.289831,4.595416,7.183553
"24-Apr-2023 12:46:07.817",-0.059821,4.722236,7.276873
"24-Apr-2023 12:46:07.835",0.299402,4.82423,7.728219
"24-Apr-2023 12:46:07.853",0.482453,5.016852,7.727023
"24-Apr-2023 12:46:07.871",0.612862,5.254938,7.50778
"24-Apr-2023 12:46:07.889",0.626022,5.32074,7.688737
"24-Apr-2023 12:46:07.907",0.584148,5.208278,8.246564
"24-Apr-2023 12:46:07.925",0.462114,5.006084,9.081959
"24-Apr-2023 12:46:07.943",0.417847,4.762914,9.84826
"24-Apr-2023 12:46:07.961",0.227318,4.626523,10.027721
"24-Apr-2023 12:46:07.979",0.184247,4.719842,9.897313
"24-Apr-2023 12:46:07.997",0.283849,5.008477,9.556036
"24-Apr-2023 12:46:08.015",0.319741,5.19751,9.163314
"24-Apr-2023 12:46:08.033",0.742074,5.156832,8.962317
"24-Apr-2023 12:46:08.051",1.447359,5.07069,9.019745
"24-Apr-2023 12:46:08.069",1.969293,4.701897,9.6015
"24-Apr-2023 12:46:08.087",2.038685,4.39083,9.870992
"24-Apr-2023 12:46:08.105",1.84696,4.162016,9.718748
"24-Apr-2023 12:46:08.123",1.570589,4.156034,9.426824
"24-Apr-2023 12:46:08.141",1.671088,4.309474,9.211171
"24-Apr-2023 12:46:08.159",1.64357,4.329813,9.080762
"24-Apr-2023 12:46:08.177",1.401596,4.295116,8.610273
"24-Apr-2023 12:46:08.195",1.102493,4.223332,7.947162
"24-Apr-2023 12:46:08.213",0.907478,4.254439,7.44437
"24-Apr-2023 12:46:08.231",0.805484,4.253242,7.456335
"24-Apr-2023 12:46:08.249",1.127618,4.334598,8.020144
"24-Apr-2023 12:46:08.267",1.686641,4.502096,8.630612
"24-Apr-2023 12:46:08.285",1.735694,4.570291,8.673683
"24-Apr-2023 12:46:08.303",1.308276,4.512864,8.227422
"24-Apr-2023 12:46:08.321",0.986441,4.408776,7.929216
"24-Apr-2023 12:46:08.339",0.939781,4.363312,7.968698
"24-Apr-2023 12:46:08.357",1.027119,4.415954,8.159226
"24-Apr-2023 12:46:08.375",0.858425,4.411169,8.177173
"24-Apr-2023 12:46:08.393",0.550648,4.352544,8.137691
"24-Apr-2023 12:46:08.410",0.538684,4.396811,8.351849
"24-Apr-2023 12:46:08.429",0.539881,4.368098,8.680861
"24-Apr-2023 12:46:08.447",0.514756,4.363312,8.908479
"24-Apr-2023 12:46:08.465",0.348455,4.43749,8.749356
"24-Apr-2023 12:46:08.483",0.338884,4.572684,8.403294
"24-Apr-2023 12:46:08.501",0.460917,4.674379,8.479864
"24-Apr-2023 12:46:08.519",0.615255,4.64088,8.729017
"24-Apr-2023 12:46:08.537",0.679861,4.671986,8.746964
"24-Apr-2023 12:46:08.555",0.715753,4.815855,8.583952
"24-Apr-2023 12:46:08.573",0.769592,4.966602,8.473883
"24-Apr-2023 12:46:08.591",0.951745,5.1341,8.519346
"24-Apr-2023 12:46:08.609",1.051047,5.213063,8.640183
"24-Apr-2023 12:46:08.627",0.918246,5.143672,8.79482
"24-Apr-2023 12:46:08.645",0.702593,5.009673,8.974281
"24-Apr-2023 12:46:08.663",0.525524,4.978567,8.798409
"24-Apr-2023 12:46:08.681",0.41665,4.986941,8.483454
"24-Apr-2023 12:46:08.699",0.420239,4.978567,8.271688
"24-Apr-2023 12:46:08.717",0.472882,4.905585,8.14128
"24-Apr-2023 12:46:08.735",0.549452,4.891229,7.956734
"24-Apr-2023 12:46:08.753",0.544666,4.965406,7.826324
"24-Apr-2023 12:46:08.771",0.452543,5.069494,7.616953
"24-Apr-2023 12:46:08.789",0.517149,5.19751,7.66122
"24-Apr-2023 12:46:08.807",0.6667,5.209474,7.87777
"24-Apr-2023 12:46:08.825",0.809073,5.153243,8.144869
"24-Apr-2023 12:46:08.843",0.812662,5.047958,8.321939
"24-Apr-2023 12:46:08.861",0.745663,4.995317,8.33151
"24-Apr-2023 12:46:08.879",0.661915,5.019245,8.321939
"24-Apr-2023 12:46:08.897",0.774377,5.077869,8.488239
"24-Apr-2023 12:46:08.915",0.949352,5.187939,8.448758
"24-Apr-2023 12:46:08.933",0.96012,5.203492,8.337491
"24-Apr-2023 12:46:08.951",0.875175,5.251348,8.084749
"24-Apr-2023 12:46:08.969",0.702593,5.355735,7.811968
"24-Apr-2023 12:46:08.987",0.719342,5.539983,7.838289
"24-Apr-2023 12:46:09.005",1.139582,5.785247,7.856235
"24-Apr-2023 12:46:09.023",1.249652,5.901598,7.710273
"24-Apr-2023 12:46:09.041",0.838983,5.882156,7.376175
"24-Apr-2023 12:46:09.059",0.566202,5.866603,7.185946
"24-Apr-2023 12:46:09.077",0.4669,5.913562,7.231409
"24-Apr-2023 12:46:09.095",0.629611,5.980561,7.239784
"24-Apr-2023 12:46:09.113",0.872782,5.999704,7.286444
"24-Apr-2023 12:46:09.131",0.706182,5.855835,7.294819
"24-Apr-2023 12:46:09.149",0.35683,5.679963,7.363014
"24-Apr-2023 12:46:09.167",0.397508,5.83071,7.388139
"24-Apr-2023 12:46:09.185",0.706182,6.112166,7.11775
"24-Apr-2023 12:46:09.203",0.97687,6.189933,6.741778
"24-Apr-2023 12:46:09.221",0.710967,6.109774,6.29761
"24-Apr-2023 12:46:09.239",-0.052642,5.879764,6.292824
"24-Apr-2023 12:46:09.257",-0.862014,5.441877,6.759724
"24-Apr-2023 12:46:09.275",-1.119243,5.362914,6.960721
"24-Apr-2023 12:46:09.293",-0.248854,5.714659,6.335895
"24-Apr-2023 12:46:09.311",0.707378,6.07747,5.014459
"24-Apr-2023 12:46:09.329",0.488435,5.827121,4.165605
"24-Apr-2023 12:46:09.347",-0.757627,4.948657,4.723432
"24-Apr-2023 12:46:09.365",-1.58375,4.079463,6.152844
"24-Apr-2023 12:46:09.383",-0.73011,3.947858,6.685546
"24-Apr-2023 12:46:09.401",1.32024,4.651647,5.025227
"24-Apr-2023 12:46:09.419",2.237289,5.403592,2.968596
"24-Apr-2023 12:46:09.437",0.821037,5.246563,5.00728
"24-Apr-2023 12:46:09.455",0.144766,4.597809,7.205088
"24-Apr-2023 12:46:09.473",0.805484,5.081458,6.049953
"24-Apr-2023 12:46:09.491",0.846461,6.071488,3.993322
"24-Apr-2023 12:46:09.509",2.511267,7.27448,3.28714
"24-Apr-2023 12:46:09.527",5.012066,7.84786,7.365407
"24-Apr-2023 12:46:09.545",5.161618,6.863812,10.552049
"24-Apr-2023 12:46:09.563",2.869293,5.799604,11.169696
"24-Apr-2023 12:46:09.581",1.947459,6.194719,8.197512
"24-Apr-2023 12:46:09.599",4.439882,8.032107,3.949055
"24-Apr-2023 12:46:09.617",7.419246,8.324331,6.71785
"24-Apr-2023 12:46:09.635",6.796813,7.816753,10.617851
"24-Apr-2023 12:46:09.653",3.133999,6.808777,11.466406
"24-Apr-2023 12:46:09.671",3.088536,6.861419,9.233903
"24-Apr-2023 12:46:09.689",3.580261,7.169196,6.80758
"24-Apr-2023 12:46:09.707",1.183849,5.884549,1.507179
"24-Apr-2023 12:46:09.725",0.944567,5.175974,1.386042
"24-Apr-2023 12:46:09.743",2.069792,4.863711,5.901598
"24-Apr-2023 12:46:09.761",1.194617,4.051946,7.293622
"24-Apr-2023 12:46:09.779",-0.196211,4.415954,4.880461
"24-Apr-2023 12:46:09.797",-0.287438,4.41715,1.097707
"24-Apr-2023 12:46:09.815",-0.229711,4.578666,1.649552
"24-Apr-2023 12:46:09.832",0.282652,4.599005,1.567
"24-Apr-2023 12:46:09.851",1.41027,4.723432,0.875175
"24-Apr-2023 12:46:09.869",1.848156,4.278367,2.486143
"24-Apr-2023 12:46:09.887",7.723433,5.851049,-0.098106
"24-Apr-2023 12:46:09.905",9.158528,5.67757,-2.054238
"24-Apr-2023 12:46:09.923",8.433205,3.58385,0.068195
"24-Apr-2023 12:46:09.941",9.660124,0.854836,1.382453
"24-Apr-2023 12:46:09.959",12.381063,-2.778366,2.851347
"24-Apr-2023 12:46:09.977",19.867308,-2.196611,7.49103
"24-Apr-2023 12:46:09.995",23.468206,-1.119243,9.292826
"24-Apr-2023 12:46:10.013",17.388344,-1.42702,6.018846
"24-Apr-2023 12:46:10.031",15.21925,-2.080559,4.431508
"24-Apr-2023 12:46:10.049",18.153149,0.553041,4.134499
"24-Apr-2023 12:46:10.067",18.049061,1.989632,-0.710967
"24-Apr-2023 12:46:10.085",13.744373,2.26361,-4.941478
"24-Apr-2023 12:46:10.103",9.122637,4.506881,-0.925424
"24-Apr-2023 12:46:10.121",8.557631,8.112267,4.408776
"24-Apr-2023 12:46:10.139",7.883752,8.685647,5.047958
"24-Apr-2023 12:46:10.157",4.336991,7.50778,9.247063
"24-Apr-2023 12:46:10.175",9.136993,8.769695,12.776177
"24-Apr-2023 12:46:10.193",11.184053,12.785748,6.632905
"24-Apr-2023 12:46:10.211",4.771587,12.226726,-1.071386
"24-Apr-2023 12:46:10.229",3.169892,9.296415,3.067898
"24-Apr-2023 12:46:10.247",5.544768,5.340182,11.996716
"24-Apr-2023 12:46:10.265",8.326724,-0.981655,13.857135
"24-Apr-2023 12:46:10.283",14.196916,-0.659522,9.518948
"24-Apr-2023 12:46:10.301",12.679268,0.739681,2.324627
"24-Apr-2023 12:46:10.319",5.863014,-1.501197,-9.136993
"24-Apr-2023 12:46:10.337",10.931312,-1.669891,-6.970293
"24-Apr-2023 12:46:10.355",18.136398,-1.304687,2.193022
"24-Apr-2023 12:46:10.373",22.268805,-0.757627,4.135695
"24-Apr-2023 12:46:10.391",20.502003,0.857229,2.68385
"24-Apr-2023 12:46:10.409",23.097019,1.173081,0.980459
"24-Apr-2023 12:46:10.427",18.927826,1.425823,2.779563
"24-Apr-2023 12:46:10.445",12.759428,-3.129214,8.889337
"24-Apr-2023 12:46:10.463",8.886943,-6.601798,13.966008
"24-Apr-2023 12:46:10.481",9.449555,-5.90758,10.614263
"24-Apr-2023 12:46:10.499",12.649358,-2.29711,4.354937
"24-Apr-2023 12:46:10.517",14.082061,0.094516,-0.561416
"24-Apr-2023 12:46:10.535",13.237095,0.326919,-4.983352
"24-Apr-2023 12:46:10.553",9.861421,0.122034,-4.875675
"24-Apr-2023 12:46:10.571",8.318349,-0.143569,-1.51675
"24-Apr-2023 12:46:10.589",6.65444,-1.374078,0.804287
"24-Apr-2023 12:46:10.607",4.504488,-3.190231,0.124427
"24-Apr-2023 12:46:10.625",2.766402,-4.291527,-0.661915
"24-Apr-2023 12:46:10.643",2.899204,-4.468596,1.176671
"24-Apr-2023 12:46:10.661",2.579762,-4.053143,3.099303
"24-Apr-2023 12:46:10.679",2.298306,-3.325425,3.131607
"24-Apr-2023 12:46:10.697",2.740081,-3.072683,4.126123
"24-Apr-2023 12:46:10.715",4.134499,-3.070291,6.765706
"24-Apr-2023 12:46:10.733",7.689934,-1.152742,6.011668
"24-Apr-2023 12:46:10.751",9.710373,0.336491,3.459423
"24-Apr-2023 12:46:10.769",9.692428,0.891925,1.890031
"24-Apr-2023 12:46:10.787",11.394622,0.701396,2.905186
"24-Apr-2023 12:46:10.805",42.914078,3.410371,10.04806
"24-Apr-2023 12:46:10.823",7.895717,3.628117,3.571886
"24-Apr-2023 12:46:10.841",6.395716,-4.26401,0.384347
"24-Apr-2023 12:46:10.859",5.263312,-2.988935,3.696612
"24-Apr-2023 12:46:10.877",7.089036,-2.914757,5.270491
"24-Apr-2023 12:46:10.895",9.245867,-1.169492,5.425127
"24-Apr-2023 12:46:10.913",8.488239,-0.690628,5.852246
"24-Apr-2023 12:46:10.931",7.066304,-0.79352,6.223433
"24-Apr-2023 12:46:10.949",7.154839,-0.319741,7.587042
"24-Apr-2023 12:46:10.967",6.445965,-0.210568,7.634899
"24-Apr-2023 12:46:10.985",5.601,-0.482453,7.288837
"24-Apr-2023 12:46:11.003",4.713861,-0.22014,7.140482
"24-Apr-2023 12:46:11.021",3.260819,-0.047856,7.372586
"24-Apr-2023 12:46:11.039",2.97697,-0.195015,9.120243
"24-Apr-2023 12:46:11.057",4.570291,-1.377668,15.506687
"24-Apr-2023 12:46:11.075",2.318645,-1.840978,12.223136
"24-Apr-2023 12:46:11.093",1.674677,-1.598106,7.079465
"24-Apr-2023 12:46:11.111",3.102893,-2.965006,8.096714
"24-Apr-2023 12:46:11.129",3.551547,-3.375674,10.325628
"24-Apr-2023 12:46:11.147",2.628815,-1.444966,9.867402
"24-Apr-2023 12:46:11.165",2.584548,-0.153141,8.589934
"24-Apr-2023 12:46:11.183",2.384448,-0.090927,8.974281
"24-Apr-2023 12:46:11.201",1.598106,-0.593719,9.338289
"24-Apr-2023 12:46:11.219",1.392025,-1.005584,9.485448
"24-Apr-2023 12:46:11.237",2.348555,-0.851247,9.763016
"24-Apr-2023 12:46:11.255",2.761616,-0.453739,9.87817
"24-Apr-2023 12:46:11.273",2.585744,-0.402293,9.339486
"24-Apr-2023 12:46:11.291",2.82024,-0.774377,9.401699
"24-Apr-2023 12:46:11.309",3.28714,-1.139582,9.65175
"24-Apr-2023 12:46:11.327",2.77717,-0.944567,9.637392
"24-Apr-2023 12:46:11.345",2.493321,-0.869193,9.435199
"24-Apr-2023 12:46:11.363",2.825026,-1.18026,9.672089
"24-Apr-2023 12:46:11.381",2.639582,-1.109671,9.434002
"24-Apr-2023 12:46:11.399",2.48375,-0.616451,9.517751
"24-Apr-2023 12:46:11.417",2.413162,-0.539881,9.362218
"24-Apr-2023 12:46:11.435",2.542673,-0.68345,9.570394
"24-Apr-2023 12:46:11.453",2.520839,-0.733699,9.596714
"24-Apr-2023 12:46:11.471",2.606083,-0.736092,9.512965
"24-Apr-2023 12:46:11.489",2.686243,-0.818644,9.583553
"24-Apr-2023 12:46:11.506",2.686243,-0.737288,9.52493
"24-Apr-2023 12:46:11.525",2.722135,-0.643968,9.512965
"24-Apr-2023 12:46:11.543",2.759224,-0.635594,9.505787
"24-Apr-2023 12:46:11.561",2.704189,-0.559023,9.541679
"24-Apr-2023 12:46:11.579",2.583351,-0.429811,9.419645
"24-Apr-2023 12:46:11.597",2.563012,-0.428614,9.377771
"24-Apr-2023 12:46:11.615",2.552244,-0.452543,9.346664
"24-Apr-2023 12:46:11.633",2.625226,-0.354437,9.24826
"24-Apr-2023 12:46:11.651",2.661118,-0.454935,9.349057
"24-Apr-2023 12:46:11.669",2.619243,-0.618844,9.477073
"24-Apr-2023 12:46:11.687",2.591726,-0.685843,9.467502
"24-Apr-2023 12:46:11.705",2.609672,-0.594916,9.443574
"24-Apr-2023 12:46:11.723",2.618047,-0.596112,9.322736
"24-Apr-2023 12:46:11.741",2.559423,-0.600898,9.233903
"24-Apr-2023 12:46:11.759",2.336591,-0.512363,10.046865
"24-Apr-2023 12:46:11.777",1.905584,-0.84018,10.277771
"24-Apr-2023 12:46:11.795",2.197808,-0.682254,9.539287
"24-Apr-2023 12:46:11.813",2.206182,-0.541077,9.418449
"24-Apr-2023 12:46:11.831",2.029114,-0.539881,9.676874
"24-Apr-2023 12:46:11.849",2.191826,-0.605683,9.467502
"24-Apr-2023 12:46:11.867",2.159523,-0.609272,9.579965
"24-Apr-2023 12:46:11.885",2.154737,-0.652343,9.624231
"24-Apr-2023 12:46:11.903",2.242075,-0.675075,9.669696
"24-Apr-2023 12:46:11.921",2.191826,-0.623629,9.539287
"24-Apr-2023 12:46:11.939",2.136791,-0.651147,9.631411
"24-Apr-2023 12:46:11.957",2.206182,-0.659522,9.585947
"24-Apr-2023 12:46:11.975",2.190629,-0.642772,9.589536
"24-Apr-2023 12:46:11.993",2.202593,-0.679861,9.597911
"24-Apr-2023 12:46:12.011",2.163112,-0.637986,9.563215
"24-Apr-2023 12:46:12.029",2.151148,-0.630808,9.582357
"24-Apr-2023 12:46:12.047",2.121237,-0.616451,9.557233
"24-Apr-2023 12:46:12.065",2.141576,-0.639183,9.579965
"24-Apr-2023 12:46:12.083",2.128416,-0.65354,9.609875
"24-Apr-2023 12:46:12.101",2.206182,-0.710967,9.626625
"24-Apr-2023 12:46:12.119",2.202593,-0.707378,9.621839
"24-Apr-2023 12:46:12.137",2.07697,-0.630808,9.496216
"24-Apr-2023 12:46:12.155",2.124826,-0.639183,9.642178
"24-Apr-2023 12:46:12.173",2.090131,-0.659522,9.582357
"24-Apr-2023 12:46:12.191",2.073381,-0.646361,9.599107
"24-Apr-2023 12:46:12.209",2.117648,-0.696611,9.611072
"24-Apr-2023 12:46:12.227",2.10688,-0.695414,9.613464
"24-Apr-2023 12:46:12.245",2.081756,-0.699003,9.606286
"24-Apr-2023 12:46:12.263",2.045863,-0.684646,9.623035
"24-Apr-2023 12:46:12.281",2.06381,-0.685843,9.605089
"24-Apr-2023 12:46:12.299",2.049453,-0.685843,9.634999
"24-Apr-2023 12:46:12.317",2.069792,-0.707378,9.607482
"24-Apr-2023 12:46:12.335",2.061417,-0.712164,9.640982
"24-Apr-2023 12:46:12.353",2.065006,-0.696611,9.611072
"24-Apr-2023 12:46:12.371",2.045863,-0.676271,9.631411
"24-Apr-2023 12:46:12.389",2.048256,-0.690628,9.607482
"24-Apr-2023 12:46:12.407",2.036292,-0.679861,9.615857
"24-Apr-2023 12:46:12.425",2.048256,-0.706182,9.617053
"24-Apr-2023 12:46:12.443",2.037488,-0.697807,9.611072
"24-Apr-2023 12:46:12.461",2.050649,-0.676271,9.609875
"24-Apr-2023 12:46:12.479",2.042274,-0.712164,9.620643
"24-Apr-2023 12:46:12.497",2.042274,-0.7002,9.627821
"24-Apr-2023 12:46:12.515",2.050649,-0.708575,9.602696
"24-Apr-2023 12:46:12.533",2.049453,-0.687039,9.621839
"24-Apr-2023 12:46:12.551",2.042274,-0.696611,9.615857
"24-Apr-2023 12:46:12.569",2.026721,-0.696611,9.612267
"24-Apr-2023 12:46:12.587",2.041078,-0.709771,9.627821
"24-Apr-2023 12:46:12.605",2.027917,-0.690628,9.6015
"24-Apr-2023 12:46:12.623",2.024328,-0.704985,9.594321
"24-Apr-2023 12:46:12.641",2.029114,-0.695414,9.626625
"24-Apr-2023 12:46:12.659",2.014757,-0.707378,9.608679
"24-Apr-2023 12:46:12.677",2.006382,-0.721735,9.646963
"24-Apr-2023 12:46:12.695",2.017149,-0.703789,9.582357
"24-Apr-2023 12:46:12.713",2.014757,-0.702593,9.649357
"24-Apr-2023 12:46:12.731",1.999203,-0.71336,9.607482
"24-Apr-2023 12:46:12.749",1.998007,-0.694218,9.636196
"24-Apr-2023 12:46:12.767",2.007578,-0.689432,9.61825
"24-Apr-2023 12:46:12.785",2.002793,-0.71336,9.613464
"24-Apr-2023 12:46:12.803",2.023132,-0.736092,9.626625
"24-Apr-2023 12:46:12.821",2.011168,-0.709771,9.619446
"24-Apr-2023 12:46:12.839",1.992025,-0.691825,9.612267
"24-Apr-2023 12:46:12.857",1.988436,-0.71336,9.652946
"24-Apr-2023 12:46:12.875",2.026721,-0.721735,9.591928
"24-Apr-2023 12:46:12.893",1.952244,-0.672682,9.625428
"24-Apr-2023 12:46:12.911",1.971686,-0.714557,9.612267
"24-Apr-2023 12:46:12.928",1.981257,-0.720539,9.632607
"24-Apr-2023 12:46:12.947",1.978864,-0.703789,9.620643
"24-Apr-2023 12:46:12.965",1.951048,-0.708575,9.625428
"24-Apr-2023 12:46:12.983",1.953441,-0.706182,9.638589
"24-Apr-2023 12:46:13.001",1.978864,-0.737288,9.627821
"24-Apr-2023 12:46:13.019",1.986043,-0.732503,9.624231
"24-Apr-2023 12:46:13.037",1.977668,-0.715753,9.630214
"24-Apr-2023 12:46:13.055",1.945066,-0.724128,9.632607
"24-Apr-2023 12:46:13.073",1.953441,-0.727717,9.642178
"24-Apr-2023 12:46:13.091",1.954637,-0.726521,9.630214
"24-Apr-2023 12:46:13.109",1.974079,-0.712164,9.631411
"24-Apr-2023 12:46:13.127",1.976472,-0.727717,9.626625
"24-Apr-2023 12:46:13.145",1.951048,-0.719342,9.631411
"24-Apr-2023 12:46:13.163",1.958226,-0.712164,9.619446
"24-Apr-2023 12:46:13.181",1.964507,-0.706182,9.626625
"24-Apr-2023 12:46:13.199",1.97049,-0.710967,9.626625
"24-Apr-2023 12:46:13.217",1.972882,-0.727717,9.64816
"24-Apr-2023 12:46:13.235",2.008775,-0.736092,9.630214
"24-Apr-2023 12:46:13.253",1.922334,-0.678664,9.605089
"24-Apr-2023 12:46:13.271",1.946262,-0.733699,9.633803
"24-Apr-2023 12:46:13.289",1.946262,-0.731306,9.64457
"24-Apr-2023 12:46:13.307",1.9669,-0.731306,9.637392
"24-Apr-2023 12:46:13.325",1.960619,-0.722932,9.639785
"24-Apr-2023 12:46:13.343",1.968097,-0.722932,9.633803
"24-Apr-2023 12:46:13.361",1.959423,-0.702593,9.615857
"24-Apr-2023 12:46:13.379",1.961815,-0.708575,9.630214
"24-Apr-2023 12:46:13.397",1.958226,-0.71336,9.624231
"24-Apr-2023 12:46:13.415",1.954637,-0.720539,9.625428
"24-Apr-2023 12:46:13.433",1.958226,-0.714557,9.627821
"24-Apr-2023 12:46:13.451",1.974079,-0.712164,9.61825
"24-Apr-2023 12:46:13.469",1.958226,-0.712164,9.630214
"24-Apr-2023 12:46:13.487",1.961815,-0.696611,9.615857
"24-Apr-2023 12:46:13.505",1.943869,-0.716949,9.634999
"24-Apr-2023 12:46:13.523",1.981257,-0.702593,9.627821
"24-Apr-2023 12:46:13.541",1.974079,-0.721735,9.627821
"24-Apr-2023 12:46:13.559",1.981257,-0.707378,9.617053
"24-Apr-2023 12:46:13.577",1.954637,-0.720539,9.617053
"24-Apr-2023 12:46:13.595",1.960619,-0.710967,9.626625
"24-Apr-2023 12:46:13.613",1.984846,-0.73011,9.629018
"24-Apr-2023 12:46:13.631",1.996811,-0.721735,9.627821
"24-Apr-2023 12:46:13.649",1.928316,-0.703789,9.463913
"24-Apr-2023 12:46:13.667",1.972882,-0.687039,9.721141
"24-Apr-2023 12:46:13.685",1.977668,-0.748056,9.594321
"24-Apr-2023 12:46:13.703",1.934298,-0.704985,9.67807
"24-Apr-2023 12:46:13.721",1.78355,-0.7002,9.638589
"24-Apr-2023 12:46:13.739",1.588535,-0.60329,9.687641
"24-Apr-2023 12:46:13.757",1.796711,-0.60688,9.633803
"24-Apr-2023 12:46:13.775",2.038685,-0.685843,9.568001
"24-Apr-2023 12:46:13.793",2.121237,-0.720539,9.606286
"24-Apr-2023 12:46:13.811",2.021935,-0.737288,9.662517
"24-Apr-2023 12:46:13.829",1.993221,-0.733699,9.619446
"24-Apr-2023 12:46:13.847",1.905584,-0.677468,9.623035
"24-Apr-2023 12:46:13.865",1.818246,-0.615255,9.636196
"24-Apr-2023 12:46:13.883",1.763211,-0.64995,9.674481
"24-Apr-2023 12:46:13.901",1.899602,-0.7002,9.64457
"24-Apr-2023 12:46:13.919",1.981257,-0.721735,9.624231
"24-Apr-2023 12:46:13.937",1.903191,-0.697807,9.658928
"24-Apr-2023 12:46:13.955",1.88046,-0.655932,9.620643
"24-Apr-2023 12:46:13.973",1.759622,-0.622433,9.650553
"24-Apr-2023 12:46:13.991",1.771586,-0.647558,9.685248
"24-Apr-2023 12:46:14.009",1.825425,-0.643968,9.593125
"24-Apr-2023 12:46:14.027",1.617249,-0.637986,9.612267
"24-Apr-2023 12:46:14.045",1.559821,-0.550648,9.806087
"24-Apr-2023 12:46:14.063",1.787139,-0.614058,9.675677
"24-Apr-2023 12:46:14.081",1.896013,-0.608076,9.599107
"24-Apr-2023 12:46:14.099",2.04706,-0.600898,9.636196
"24-Apr-2023 12:46:14.117",1.897209,-0.690628,9.72473
"24-Apr-2023 12:46:14.135",1.775175,-0.611665,9.591928
"24-Apr-2023 12:46:14.153",1.726122,-0.500399,9.682856
"24-Apr-2023 12:46:14.171",1.824228,-0.60329,9.783355
"24-Apr-2023 12:46:14.189",1.675873,-0.738485,9.550055
"24-Apr-2023 12:46:14.207",1.501197,-0.557827,9.704391
"24-Apr-2023 12:46:14.225",1.692623,-0.474078,9.836296
"24-Apr-2023 12:46:14.243",1.986043,-0.415454,9.74148
"24-Apr-2023 12:46:14.261",1.976472,-0.661915,9.705587
"24-Apr-2023 12:46:14.279",2.081756,-0.663111,9.282058
"24-Apr-2023 12:46:14.297",2.604887,-0.687039,9.422038
"24-Apr-2023 12:46:14.315",2.484946,-0.679861,9.530911
"24-Apr-2023 12:46:14.333",2.232503,-0.681057,9.583553
"24-Apr-2023 12:46:14.351",1.89362,-0.645165,9.853045
"24-Apr-2023 12:46:14.369",2.334198,-0.768395,9.477073
"24-Apr-2023 12:46:14.387",2.392823,-0.918246,9.516555
"24-Apr-2023 12:46:14.405",2.082952,-0.707378,9.605089
"24-Apr-2023 12:46:14.423",1.974079,-0.696611,9.642178
"24-Apr-2023 12:46:14.441",1.931905,-0.704985,9.719945
"24-Apr-2023 12:46:14.459",1.961815,-0.664307,9.583553
"24-Apr-2023 12:46:14.477",2.03031,-0.652343,9.571589
"24-Apr-2023 12:46:14.495",1.936691,-0.62004,9.658928
"24-Apr-2023 12:46:14.513",1.928316,-0.648754,9.624231
"24-Apr-2023 12:46:14.531",1.900798,-0.598505,9.654142
"24-Apr-2023 12:46:14.549",1.948655,-0.64995,9.625428
"24-Apr-2023 12:46:14.567",1.981257,-0.642772,9.667302
"24-Apr-2023 12:46:14.585",1.951048,-0.63679,9.609875
"24-Apr-2023 12:46:14.603",1.946262,-0.622433,9.632607
"24-Apr-2023 12:46:14.621",1.875674,-0.59013,9.688838
"24-Apr-2023 12:46:14.639",1.905584,-0.639183,9.656535
"24-Apr-2023 12:46:14.657",1.948655,-0.622433,9.606286
"24-Apr-2023 12:46:14.675",1.929512,-0.617647,9.636196
"24-Apr-2023 12:46:14.693",1.954637,-0.628415,9.65175
"24-Apr-2023 12:46:14.711",1.912763,-0.63679,9.642178
"24-Apr-2023 12:46:14.729",1.887638,-0.605683,9.662517
"24-Apr-2023 12:46:14.747",1.901995,-0.612862,9.654142
"24-Apr-2023 12:46:14.765",1.913959,-0.652343,9.64457
"24-Apr-2023 12:46:14.783",1.939084,-0.632004,9.626625
"24-Apr-2023 12:46:14.801",1.894816,-0.598505,9.625428
"24-Apr-2023 12:46:14.819",1.875674,-0.582951,9.656535
"24-Apr-2023 12:46:14.837",1.878067,-0.614058,9.656535
"24-Apr-2023 12:46:14.855",1.894816,-0.635594,9.668499
"24-Apr-2023 12:46:14.873",1.894816,-0.634397,9.656535
"24-Apr-2023 12:46:14.891",1.909173,-0.645165,9.636196
"24-Apr-2023 12:46:14.909",1.866103,-0.611665,9.660124
"24-Apr-2023 12:46:14.927",1.881656,-0.626022,9.658928
"24-Apr-2023 12:46:14.945",1.892424,-0.643968,9.657731
"24-Apr-2023 12:46:14.963",1.875674,-0.609272,9.643374
"24-Apr-2023 12:46:14.981",1.868495,-0.611665,9.664909
"24-Apr-2023 12:46:14.999",1.885245,-0.622433,9.663713
"24-Apr-2023 12:46:15.017",1.919941,-0.624826,9.643374
"24-Apr-2023 12:46:15.035",1.903191,-0.608076,9.612267
"24-Apr-2023 12:46:15.053",1.868495,-0.596112,9.660124
"24-Apr-2023 12:46:15.071",1.882852,-0.609272,9.657731
"24-Apr-2023 12:46:15.089",1.892424,-0.634397,9.650553
"24-Apr-2023 12:46:15.107",1.897209,-0.608076,9.643374
"24-Apr-2023 12:46:15.125",1.879263,-0.614058,9.636196
"24-Apr-2023 12:46:15.143",1.890031,-0.611665,9.645767
"24-Apr-2023 12:46:15.161",1.892424,-0.612862,9.650553
"24-Apr-2023 12:46:15.179",1.879263,-0.608076,9.652946
"24-Apr-2023 12:46:15.197",1.879263,-0.605683,9.645767
"24-Apr-2023 12:46:15.215",1.896013,-0.616451,9.639785
"24-Apr-2023 12:46:15.233",1.886442,-0.612862,9.655338
"24-Apr-2023 12:46:15.251",1.878067,-0.593719,9.65175
"24-Apr-2023 12:46:15.269",1.887638,-0.593719,9.673285
"24-Apr-2023 12:46:15.287",1.890031,-0.611665,9.637392
"24-Apr-2023 12:46:15.305",1.897209,-0.598505,9.623035
"24-Apr-2023 12:46:15.323",1.890031,-0.581755,9.658928
"24-Apr-2023 12:46:15.341",1.888834,-0.592523,9.65175
"24-Apr-2023 12:46:15.359",1.886442,-0.587737,9.65175
"24-Apr-2023 12:46:15.377",1.888834,-0.578166,9.630214
"24-Apr-2023 12:46:15.395",1.874477,-0.60329,9.652946
"24-Apr-2023 12:46:15.413",1.87687,-0.597308,9.654142
"24-Apr-2023 12:46:15.431",1.891227,-0.600898,9.650553
"24-Apr-2023 12:46:15.449",1.896013,-0.59013,9.649357
"24-Apr-2023 12:46:15.467",1.890031,-0.598505,9.630214
"24-Apr-2023 12:46:15.485",1.869692,-0.56022,9.649357
"24-Apr-2023 12:46:15.503",1.875674,-0.586541,9.637392
"24-Apr-2023 12:46:15.521",1.873281,-0.57338,9.657731
"24-Apr-2023 12:46:15.539",1.898406,-0.586541,9.64816
"24-Apr-2023 12:46:15.557",1.897209,-0.581755,9.637392
"24-Apr-2023 12:46:15.575",1.903191,-0.59013,9.663713
"24-Apr-2023 12:46:15.593",1.892424,-0.586541,9.649357
"24-Apr-2023 12:46:15.611",1.869692,-0.563809,9.645767
"24-Apr-2023 12:46:15.629",1.864906,-0.566202,9.657731
"24-Apr-2023 12:46:15.647",1.890031,-0.572184,9.654142
"24-Apr-2023 12:46:15.665",1.909173,-0.576969,9.664909
"24-Apr-2023 12:46:15.683",1.879263,-0.569791,9.657731
"24-Apr-2023 12:46:15.701",1.918745,-0.550648,9.636196
"24-Apr-2023 12:46:15.719",1.901995,-0.562612,9.640982
"24-Apr-2023 12:46:15.737",1.906781,-0.557827,9.650553
"24-Apr-2023 12:46:15.755",1.899602,-0.565005,9.637392
"24-Apr-2023 12:46:15.773",1.888834,-0.559023,9.655338
"24-Apr-2023 12:46:15.791",1.915155,-0.559023,9.650553
"24-Apr-2023 12:46:15.809",1.891227,-0.544666,9.64816
"24-Apr-2023 12:46:15.827",1.896013,-0.563809,9.661321
"24-Apr-2023 12:46:15.845",1.905584,-0.559023,9.640982
"24-Apr-2023 12:46:15.863",1.89362,-0.575773,9.655338
"24-Apr-2023 12:46:15.881",1.882852,-0.555434,9.670892
"24-Apr-2023 12:46:15.899",1.896013,-0.55663,9.658928
"24-Apr-2023 12:46:15.917",1.899602,-0.574577,9.64816
"24-Apr-2023 12:46:15.935",1.917548,-0.563809,9.64816
"24-Apr-2023 12:46:15.953",1.894816,-0.538684,9.663713
"24-Apr-2023 12:46:15.971",1.909173,-0.567398,9.688838
"24-Apr-2023 12:46:15.989",1.901995,-0.554238,9.65175
"24-Apr-2023 12:46:16.007",1.916352,-0.533899,9.633803
"24-Apr-2023 12:46:16.025",1.912763,-0.547059,9.652946
"24-Apr-2023 12:46:16.043",1.901995,-0.532702,9.646963
"24-Apr-2023 12:46:16.061",1.913959,-0.557827,9.660124
"24-Apr-2023 12:46:16.079",1.936691,-0.551845,9.661321
"24-Apr-2023 12:46:16.097",1.898406,-0.550648,9.672089
"24-Apr-2023 12:46:16.115",1.934298,-0.567398,9.646963
"24-Apr-2023 12:46:16.133",1.964507,-0.559023,9.632607
"24-Apr-2023 12:46:16.151",1.928316,-0.536291,9.656535
"24-Apr-2023 12:46:16.169",1.922334,-0.55663,9.661321
"24-Apr-2023 12:46:16.187",1.925923,-0.550648,9.646963
"24-Apr-2023 12:46:16.205",1.896013,-0.545863,9.669696
"24-Apr-2023 12:46:16.223",1.919941,-0.542273,9.658928
"24-Apr-2023 12:46:16.241",1.918745,-0.547059,9.660124
"24-Apr-2023 12:46:16.259",1.936691,-0.56022,9.645767
"24-Apr-2023 12:46:16.277",1.916352,-0.55663,9.664909
"24-Apr-2023 12:46:16.295",1.919941,-0.550648,9.668499
"24-Apr-2023 12:46:16.313",1.92353,-0.562612,9.645767
"24-Apr-2023 12:46:16.331",1.907977,-0.553041,9.668499
"24-Apr-2023 12:46:16.349",1.935494,-0.559023,9.660124
"24-Apr-2023 12:46:16.367",1.933102,-0.559023,9.658928
"24-Apr-2023 12:46:16.385",1.921137,-0.550648,9.64816
"24-Apr-2023 12:46:16.403",1.909173,-0.549452,9.658928
"24-Apr-2023 12:46:16.421",1.916352,-0.554238,9.664909
"24-Apr-2023 12:46:16.439",1.927119,-0.536291,9.660124
"24-Apr-2023 12:46:16.457",1.913959,-0.55663,9.662517
"24-Apr-2023 12:46:16.475",1.911566,-0.550648,9.666106
"24-Apr-2023 12:46:16.493",1.903191,-0.539881,9.668499
"24-Apr-2023 12:46:16.511",1.917548,-0.561416,9.645767
"24-Apr-2023 12:46:16.529",1.912763,-0.553041,9.664909
"24-Apr-2023 12:46:16.547",1.900798,-0.56022,9.649357
"24-Apr-2023 12:46:16.565",1.916352,-0.555434,9.67807
"24-Apr-2023 12:46:16.583",1.931905,-0.565005,9.64816
"24-Apr-2023 12:46:16.601",1.899602,-0.547059,9.646963
"24-Apr-2023 12:46:16.619",1.91037,-0.537488,9.660124
"24-Apr-2023 12:46:16.637",1.907977,-0.553041,9.660124
"24-Apr-2023 12:46:16.655",1.922334,-0.563809,9.670892
"24-Apr-2023 12:46:16.673",1.904388,-0.548256,9.667302
"24-Apr-2023 12:46:16.691",1.915155,-0.549452,9.650553
"24-Apr-2023 12:46:16.709",1.899602,-0.525524,9.637392
"24-Apr-2023 12:46:16.727",1.907977,-0.554238,9.673285
"24-Apr-2023 12:46:16.745",1.913959,-0.554238,9.649357
"24-Apr-2023 12:46:16.763",1.915155,-0.54347,9.674481
"24-Apr-2023 12:46:16.781",1.913959,-0.542273,9.658928
"24-Apr-2023 12:46:16.799",1.906781,-0.535095,9.650553
"24-Apr-2023 12:46:16.817",1.915155,-0.554238,9.655338
"24-Apr-2023 12:46:16.835",1.917548,-0.553041,9.654142
"24-Apr-2023 12:46:16.853",1.919941,-0.553041,9.656535
"24-Apr-2023 12:46:16.871",1.922334,-0.537488,9.650553
"24-Apr-2023 12:46:16.889",1.905584,-0.537488,9.662517
"24-Apr-2023 12:46:16.907",1.903191,-0.537488,9.640982
"24-Apr-2023 12:46:16.925",1.919941,-0.551845,9.670892
"24-Apr-2023 12:46:16.943",1.91037,-0.555434,9.670892
"24-Apr-2023 12:46:16.961",1.912763,-0.530309,9.64457
"24-Apr-2023 12:46:16.979",1.896013,-0.519542,9.663713
"24-Apr-2023 12:46:16.997",1.904388,-0.538684,9.654142
"24-Apr-2023 12:46:17.015",1.896013,-0.529113,9.656535
"24-Apr-2023 12:46:17.033",1.922334,-0.549452,9.656535
"24-Apr-2023 12:46:17.051",1.91037,-0.54347,9.663713
"24-Apr-2023 12:46:17.069",1.896013,-0.536291,9.670892
"24-Apr-2023 12:46:17.087",1.904388,-0.533899,9.646963
"24-Apr-2023 12:46:17.105",1.906781,-0.536291,9.636196
"24-Apr-2023 12:46:17.123",1.912763,-0.527916,9.650553
"24-Apr-2023 12:46:17.141",1.900798,-0.533899,9.661321
"24-Apr-2023 12:46:17.159",1.924727,-0.544666,9.649357
"24-Apr-2023 12:46:17.177",1.894816,-0.536291,9.643374
"24-Apr-2023 12:46:17.195",1.915155,-0.541077,9.660124
"24-Apr-2023 12:46:17.213",1.912763,-0.519542,9.646963
"24-Apr-2023 12:46:17.231",1.907977,-0.547059,9.655338
"24-Apr-2023 12:46:17.249",1.919941,-0.536291,9.646963
"24-Apr-2023 12:46:17.267",1.899602,-0.533899,9.65175
"24-Apr-2023 12:46:17.285",1.909173,-0.531506,9.658928
"24-Apr-2023 12:46:17.303",1.905584,-0.523131,9.657731
"24-Apr-2023 12:46:17.321",1.911566,-0.523131,9.64457
"24-Apr-2023 12:46:17.339",1.916352,-0.535095,9.650553
"24-Apr-2023 12:46:17.357",1.916352,-0.533899,9.637392
"24-Apr-2023 12:46:17.375",1.906781,-0.52672,9.642178
"24-Apr-2023 12:46:17.393",1.899602,-0.511167,9.646963
"24-Apr-2023 12:46:17.411",1.921137,-0.542273,9.661321
"24-Apr-2023 12:46:17.429",1.933102,-0.538684,9.657731
"24-Apr-2023 12:46:17.446",1.905584,-0.529113,9.65175
"24-Apr-2023 12:46:17.465",1.903191,-0.519542,9.645767
"24-Apr-2023 12:46:17.483",1.898406,-0.527916,9.638589
"24-Apr-2023 12:46:17.501",1.901995,-0.525524,9.649357
"24-Apr-2023 12:46:17.519",1.901995,-0.524327,9.656535
"24-Apr-2023 12:46:17.537",1.918745,-0.531506,9.649357
"24-Apr-2023 12:46:17.555",1.91037,-0.52672,9.64816
"24-Apr-2023 12:46:17.573",1.909173,-0.514756,9.638589
"24-Apr-2023 12:46:17.591",1.921137,-0.547059,9.660124
"24-Apr-2023 12:46:17.609",1.898406,-0.524327,9.638589
"24-Apr-2023 12:46:17.627",1.91037,-0.521934,9.654142
"24-Apr-2023 12:46:17.645",1.91037,-0.517149,9.642178
"24-Apr-2023 12:46:17.663",1.898406,-0.533899,9.639785
"24-Apr-2023 12:46:17.681",1.91037,-0.529113,9.643374
"24-Apr-2023 12:46:17.699",1.898406,-0.505185,9.64457
"24-Apr-2023 12:46:17.717",1.894816,-0.52672,9.655338
"24-Apr-2023 12:46:17.735",1.916352,-0.520738,9.650553
"24-Apr-2023 12:46:17.753",1.916352,-0.519542,9.654142
"24-Apr-2023 12:46:17.771",1.927119,-0.524327,9.650553
"24-Apr-2023 12:46:17.789",1.901995,-0.520738,9.654142
"24-Apr-2023 12:46:17.807",1.907977,-0.512363,9.643374
"24-Apr-2023 12:46:17.825",1.915155,-0.541077,9.645767
"24-Apr-2023 12:46:17.843",1.916352,-0.511167,9.650553
"24-Apr-2023 12:46:17.861",1.919941,-0.515952,9.640982
"24-Apr-2023 12:46:17.879",1.928316,-0.532702,9.637392
"24-Apr-2023 12:46:17.897",1.915155,-0.50997,9.649357
"24-Apr-2023 12:46:17.915",1.924727,-0.518345,9.633803
"24-Apr-2023 12:46:17.933",1.931905,-0.524327,9.643374
"24-Apr-2023 12:46:17.951",1.917548,-0.499203,9.634999
"24-Apr-2023 12:46:17.969",1.907977,-0.51356,9.645767
"24-Apr-2023 12:46:17.987",1.916352,-0.521934,9.64457
"24-Apr-2023 12:46:18.005",1.918745,-0.514756,9.639785
"24-Apr-2023 12:46:18.023",1.917548,-0.50997,9.629018
"24-Apr-2023 12:46:18.041",1.909173,-0.523131,9.658928
"24-Apr-2023 12:46:18.059",1.907977,-0.519542,9.642178
"24-Apr-2023 12:46:18.077",1.915155,-0.520738,9.65175
"24-Apr-2023 12:46:18.095",1.919941,-0.51356,9.639785
"24-Apr-2023 12:46:18.113",1.91037,-0.518345,9.654142
"24-Apr-2023 12:46:18.131",1.897209,-0.533899,9.650553
"24-Apr-2023 12:46:18.149",1.917548,-0.520738,9.652946
"24-Apr-2023 12:46:18.167",1.91037,-0.525524,9.640982
"24-Apr-2023 12:46:18.185",1.912763,-0.52672,9.64816
"24-Apr-2023 12:46:18.203",1.91037,-0.532702,9.65175
"24-Apr-2023 12:46:18.221",1.917548,-0.517149,9.649357
"24-Apr-2023 12:46:18.239",1.904388,-0.514756,9.658928
"24-Apr-2023 12:46:18.257",1.901995,-0.529113,9.645767
"24-Apr-2023 12:46:18.275",1.888834,-0.514756,9.638589
"24-Apr-2023 12:46:18.293",1.905584,-0.52672,9.662517
"24-Apr-2023 12:46:18.311",1.917548,-0.52672,9.660124
"24-Apr-2023 12:46:18.329",1.912763,-0.521934,9.65175
"24-Apr-2023 12:46:18.347",1.900798,-0.520738,9.646963
"24-Apr-2023 12:46:18.365",1.906781,-0.523131,9.642178
"24-Apr-2023 12:46:18.383",1.906781,-0.525524,9.649357
"24-Apr-2023 12:46:18.401",1.896013,-0.512363,9.64816
"24-Apr-2023 12:46:18.419",1.898406,-0.515952,9.650553
"24-Apr-2023 12:46:18.437",1.894816,-0.506381,9.667302
"24-Apr-2023 12:46:18.455",1.913959,-0.537488,9.667302
"24-Apr-2023 12:46:18.473",1.912763,-0.514756,9.639785
"24-Apr-2023 12:46:18.491",1.901995,-0.517149,9.658928
"24-Apr-2023 12:46:18.509",1.909173,-0.51356,9.656535
"24-Apr-2023 12:46:18.527",1.89362,-0.517149,9.645767
"24-Apr-2023 12:46:18.545",1.907977,-0.514756,9.654142
"24-Apr-2023 12:46:18.563",1.901995,-0.541077,9.673285
"24-Apr-2023 12:46:18.581",1.906781,-0.535095,9.660124
"24-Apr-2023 12:46:18.599",1.900798,-0.52672,9.661321
"24-Apr-2023 12:46:18.617",1.886442,-0.517149,9.646963
"24-Apr-2023 12:46:18.635",1.904388,-0.530309,9.668499
"24-Apr-2023 12:46:18.653",1.904388,-0.531506,9.662517
"24-Apr-2023 12:46:18.671",1.916352,-0.54347,9.64457
"24-Apr-2023 12:46:18.689",1.899602,-0.514756,9.650553
"24-Apr-2023 12:46:18.707",1.886442,-0.517149,9.662517
"24-Apr-2023 12:46:18.725",1.886442,-0.525524,9.668499
"24-Apr-2023 12:46:18.743",1.909173,-0.544666,9.660124
"24-Apr-2023 12:46:18.761",1.911566,-0.541077,9.654142
"24-Apr-2023 12:46:18.779",1.887638,-0.537488,9.670892
"24-Apr-2023 12:46:18.797",1.887638,-0.530309,9.676874
"24-Apr-2023 12:46:18.815",1.888834,-0.532702,9.669696
"24-Apr-2023 12:46:18.833",1.894816,-0.527916,9.664909
"24-Apr-2023 12:46:18.851",1.897209,-0.521934,9.663713
"24-Apr-2023 12:46:18.868",1.884049,-0.521934,9.674481
"24-Apr-2023 12:46:18.887",1.900798,-0.521934,9.673285
"24-Apr-2023 12:46:18.905",1.87687,-0.536291,9.67807
"24-Apr-2023 12:46:18.923",1.884049,-0.523131,9.654142
"24-Apr-2023 12:46:18.941",1.875674,-0.529113,9.670892
"24-Apr-2023 12:46:18.959",1.888834,-0.548256,9.674481
"24-Apr-2023 12:46:18.977",1.879263,-0.529113,9.670892
"24-Apr-2023 12:46:18.995",1.881656,-0.523131,9.686445
"24-Apr-2023 12:46:19.013",1.881656,-0.544666,9.682856
"24-Apr-2023 12:46:19.031",1.891227,-0.529113,9.68166
"24-Apr-2023 12:46:19.049",1.881656,-0.529113,9.680463
"24-Apr-2023 12:46:19.067",1.885245,-0.542273,9.690035
"24-Apr-2023 12:46:19.085",1.884049,-0.533899,9.696016
"24-Apr-2023 12:46:19.103",1.884049,-0.536291,9.691231
"24-Apr-2023 12:46:19.121",1.881656,-0.530309,9.661321
"24-Apr-2023 12:46:19.139",1.870888,-0.532702,9.663713
"24-Apr-2023 12:46:19.157",1.874477,-0.553041,9.703195
"24-Apr-2023 12:46:19.175",1.882852,-0.535095,9.674481
"24-Apr-2023 12:46:19.193",1.885245,-0.54347,9.679267
"24-Apr-2023 12:46:19.211",1.887638,-0.545863,9.67807
"24-Apr-2023 12:46:19.229",1.879263,-0.55663,9.685248
"24-Apr-2023 12:46:19.247",1.882852,-0.549452,9.692428
"24-Apr-2023 12:46:19.265",1.87687,-0.539881,9.68166
"24-Apr-2023 12:46:19.283",1.882852,-0.545863,9.688838
"24-Apr-2023 12:46:19.301",1.890031,-0.561416,9.668499
"24-Apr-2023 12:46:19.319",1.89362,-0.538684,9.672089
"24-Apr-2023 12:46:19.337",1.874477,-0.544666,9.682856
"24-Apr-2023 12:46:19.355",1.870888,-0.535095,9.679267
"24-Apr-2023 12:46:19.373",1.873281,-0.562612,9.68166
"24-Apr-2023 12:46:19.391",1.884049,-0.542273,9.674481
"24-Apr-2023 12:46:19.409",1.862513,-0.541077,9.670892
"24-Apr-2023 12:46:19.427",1.879263,-0.531506,9.679267
"24-Apr-2023 12:46:19.445",1.86371,-0.549452,9.680463
"24-Apr-2023 12:46:19.463",1.868495,-0.559023,9.674481
"24-Apr-2023 12:46:19.481",1.872085,-0.532702,9.667302
"24-Apr-2023 12:46:19.499",1.867299,-0.539881,9.688838
"24-Apr-2023 12:46:19.517",1.87687,-0.536291,9.67807
"24-Apr-2023 12:46:19.535",1.875674,-0.527916,9.667302
"24-Apr-2023 12:46:19.553",1.869692,-0.551845,9.679267
"24-Apr-2023 12:46:19.571",1.882852,-0.535095,9.667302
"24-Apr-2023 12:46:19.589",1.860121,-0.553041,9.67807
"24-Apr-2023 12:46:19.607",1.873281,-0.541077,9.685248
"24-Apr-2023 12:46:19.625",1.861317,-0.537488,9.673285
"24-Apr-2023 12:46:19.643",1.857728,-0.537488,9.655338
"24-Apr-2023 12:46:19.661",1.857728,-0.544666,9.67807
"24-Apr-2023 12:46:19.679",1.861317,-0.553041,9.672089
"24-Apr-2023 12:46:19.697",1.857728,-0.562612,9.676874
"24-Apr-2023 12:46:19.715",1.844567,-0.549452,9.660124
"24-Apr-2023 12:46:19.733",1.845764,-0.541077,9.657731
"24-Apr-2023 12:46:19.751",1.866103,-0.542273,9.675677
"24-Apr-2023 12:46:19.769",1.875674,-0.539881,9.690035
"24-Apr-2023 12:46:19.787",1.869692,-0.549452,9.654142
"24-Apr-2023 12:46:19.805",1.843371,-0.531506,9.680463
"24-Apr-2023 12:46:19.823",1.856531,-0.538684,9.662517
"24-Apr-2023 12:46:19.841",1.855335,-0.535095,9.662517
"24-Apr-2023 12:46:19.859",1.854138,-0.541077,9.673285
