Timestamp,X,Y,Z
"24-Mar-2023 10:38:45.559",1.841277,-9.535398,1.837688
"24-Mar-2023 10:38:45.626",1.782653,-9.41815,1.835893
"24-Mar-2023 10:38:45.693",1.830509,-9.44806,1.835893
"24-Mar-2023 10:38:45.760",1.855634,-9.443872,1.821536
"24-Mar-2023 10:38:45.827",1.822733,-9.391829,1.87358
"24-Mar-2023 10:38:45.894",1.861018,-9.448658,1.849652
"24-Mar-2023 10:38:45.961",1.840679,-9.433703,1.864607
"24-Mar-2023 10:38:46.045",1.859821,-9.397811,1.902294
"24-Mar-2023 10:38:46.061",1.811965,-9.397811,1.898107
"24-Mar-2023 10:38:46.128",1.832902,-9.443872,1.842473
"24-Mar-2023 10:38:46.195",1.847259,-9.419945,1.807179
"24-Mar-2023 10:38:46.262",1.920838,-9.400802,1.742573
"24-Mar-2023 10:38:46.329",1.954338,-9.406784,1.591825
"24-Mar-2023 10:38:46.396",2.112264,-9.370892,1.473979
"24-Mar-2023 10:38:46.463",2.126621,-9.233304,1.31007
"24-Mar-2023 10:38:46.530",2.029712,-9.339785,1.230509
"24-Mar-2023 10:38:46.597",1.9669,-9.332606,1.189831
"24-Mar-2023 10:38:46.664",2.122434,-9.46481,1.223331
"24-Mar-2023 10:38:46.731",2.082952,-9.71486,0.908674
"24-Mar-2023 10:38:46.798",2.224129,-9.648459,0.692722
"24-Mar-2023 10:38:46.865",2.382055,-9.731609,0.658624
"24-Mar-2023 10:38:46.932",2.380858,-9.653843,0.714856
"24-Mar-2023 10:38:46.999",2.232503,-9.802796,0.534796
"24-Mar-2023 10:38:47.066",2.126023,-9.546165,0.275773
"24-Mar-2023 10:38:47.133",2.783451,-9.126823,0.142971
"24-Mar-2023 10:38:47.200",2.760121,-8.857033,-0.062213
"24-Mar-2023 10:38:47.267",3.071188,-9.29492,0.010768
"24-Mar-2023 10:38:47.334",3.968496,-9.364909,0.101695
"24-Mar-2023 10:38:47.401",3.34038,-8.921639,0.557528
"24-Mar-2023 10:38:47.468",3.809972,-10.089935,0.969093
"24-Mar-2023 10:38:47.535",3.31705,-9.058628,1.199402
"24-Mar-2023 10:38:47.602",2.891128,-9.071789,1.342373
"24-Mar-2023 10:38:47.669",2.757728,-8.922835,1.731207
"24-Mar-2023 10:38:47.736",3.747758,-9.193225,0.463011
"24-Mar-2023 10:38:47.870",3.342175,-9.597013,-0.108873
"24-Mar-2023 10:38:47.886",3.64726,-9.626326,0.404387
"24-Mar-2023 10:38:47.953",2.268994,-10.184451,0.32004
"24-Mar-2023 10:38:48.020",1.366302,-10.030114,-0.386441
"24-Mar-2023 10:38:48.087",3.141178,-9.387043,-0.437288
"24-Mar-2023 10:38:48.154",3.71725,-7.731808,-0.808774
"24-Mar-2023 10:38:48.221",3.244069,-9.528818,-0.7669
"24-Mar-2023 10:38:48.288",3.026921,-8.956335,-0.198604
"24-Mar-2023 10:38:48.355",2.967698,-9.876974,-0.69691
"24-Mar-2023 10:38:48.422",2.82712,-8.886943,0.638884
"24-Mar-2023 10:38:48.489",4.033103,-9.082557,-0.459422
"24-Mar-2023 10:38:48.556",3.228516,-9.364311,0.567099
"24-Mar-2023 10:38:48.623",4.085745,-10.095917,0.680758
"24-Mar-2023 10:38:48.690",3.29372,-9.45823,0.805783
"24-Mar-2023 10:38:48.757",3.016751,-8.806186,1.268794
"24-Mar-2023 10:38:48.824",2.616552,-7.65464,0.790828
"24-Mar-2023 10:38:48.891",4.168895,-10.889137,-0.553938
"24-Mar-2023 10:38:48.958",2.669792,-7.774879,-1.039083
"24-Mar-2023 10:38:49.025",2.955136,-11.362318,-0.622732
"24-Mar-2023 10:38:49.092",2.371287,-9.471989,-0.373879
"24-Mar-2023 10:38:49.159",2.60698,-9.274581,-0.22672
"24-Mar-2023 10:38:49.226",2.825923,-9.142377,0.002991
"24-Mar-2023 10:38:49.293",2.404787,-9.297313,-0.114257
"24-Mar-2023 10:38:49.360",3.608975,-8.961719,-0.177069
"24-Mar-2023 10:38:49.427",3.917649,-9.094521,-0.375075
"24-Mar-2023 10:38:49.494",3.555734,-9.023335,0.40678
"24-Mar-2023 10:38:49.561",3.729214,-9.91466,0.494716
"24-Mar-2023 10:38:49.628",3.924827,-9.463614,0.524028
"24-Mar-2023 10:38:49.695",3.279363,-9.023932,0.562912
"24-Mar-2023 10:38:49.762",2.786442,-8.906684,0.948156
"24-Mar-2023 10:38:49.829",2.879164,-8.64467,1.022932
"24-Mar-2023 10:38:49.896",3.790829,-9.352945,-0.152542
"24-Mar-2023 10:38:49.963",2.635694,-9.851251,0.058026
"24-Mar-2023 10:38:50.030",2.852843,-8.740981,-0.661615
"24-Mar-2023 10:38:50.097",2.807977,-8.852247,-0.642473
"24-Mar-2023 10:38:50.164",2.928217,-9.422935,-0.113061
"24-Mar-2023 10:38:50.231",2.558526,-10.113265,-0.210568
"24-Mar-2023 10:38:50.298",2.147558,-9.827323,-0.060419
"24-Mar-2023 10:38:50.365",2.271387,-9.402596,0.217747
"24-Mar-2023 10:38:50.432",2.364109,-9.138189,0.010169
"24-Mar-2023 10:38:50.499",2.41376,-9.531211,0.471386
"24-Mar-2023 10:38:50.566",2.241477,-9.982258,-0.244068
"24-Mar-2023 10:38:50.633",3.234498,-9.029915,-0.294317
"24-Mar-2023 10:38:50.700",2.801995,-8.950353,-0.34337
"24-Mar-2023 10:38:50.767",3.033501,-8.883952,-0.412164
"24-Mar-2023 10:38:50.834",3.317649,-9.695718,-0.247657
"24-Mar-2023 10:38:50.901",3.300301,-8.995218,0.573081
"24-Mar-2023 10:38:50.968",3.172883,-10.363914,0.891326
"24-Mar-2023 10:38:51.035",3.467798,-9.340384,0.994218
"24-Mar-2023 10:38:51.102",2.617748,-9.149555,0.714856
"24-Mar-2023 10:38:51.169",3.232703,-8.674581,1.12343
"24-Mar-2023 10:38:51.236",2.688935,-8.448459,0.365504
"24-Mar-2023 10:38:51.303",3.241677,-11.347363,-0.018544
"24-Mar-2023 10:38:51.370",2.123032,-7.753942,-0.408574
"24-Mar-2023 10:38:51.437",3.034697,-10.152148,0.245863
"24-Mar-2023 10:38:51.504",1.997409,-9.521041,-0.064008
"24-Mar-2023 10:38:51.571",2.554936,-9.529416,-0.062812
"24-Mar-2023 10:38:51.638",2.266003,-9.160921,-0.144168
"24-Mar-2023 10:38:51.705",2.655435,-9.381062,0.247059
"24-Mar-2023 10:38:51.772",2.55374,-10.281361,-0.20339
"24-Mar-2023 10:38:51.839",3.126223,-8.849257,0.09332
"24-Mar-2023 10:38:51.906",2.469991,-9.02154,-0.041276
"24-Mar-2023 10:38:51.973",2.907878,-9.363115,-0.230907
"24-Mar-2023 10:38:52.040",3.843471,-9.102896,-0.078963
"24-Mar-2023 10:38:52.107",3.249453,-9.135199,0.498305
"24-Mar-2023 10:38:52.174",3.672983,-10.0014,0.555135
"24-Mar-2023 10:38:52.241",3.35055,-9.499506,0.675374
"24-Mar-2023 10:38:52.308",2.879164,-9.227921,0.933799
"24-Mar-2023 10:38:52.375",2.606382,-8.626724,1.533201
"24-Mar-2023 10:38:52.442",2.517848,-8.132606,0.212363
"24-Mar-2023 10:38:52.509",3.332006,-10.594222,-0.321236
"24-Mar-2023 10:38:52.576",2.819343,-8.849854,0.004187
"24-Mar-2023 10:38:52.643",2.118845,-10.47817,-0.380459
"24-Mar-2023 10:38:52.710",2.586641,-9.055039,-0.445663
"24-Mar-2023 10:38:52.777",2.371886,-9.234501,-0.239282
"24-Mar-2023 10:38:52.844",2.559722,-9.472587,0.439083
"24-Mar-2023 10:38:52.911",2.569891,-10.016356,-0.071785
"24-Mar-2023 10:38:52.978",2.322234,-8.937791,-0.12323
"24-Mar-2023 10:38:53.045",3.171686,-9.31466,0.022732
"24-Mar-2023 10:38:53.112",2.757728,-8.895916,-0.32004
"24-Mar-2023 10:38:53.179",4.143172,-9.222537,-0.187837
"24-Mar-2023 10:38:53.246",3.379264,-9.280562,0.381655
"24-Mar-2023 10:38:53.313",3.744767,-10.000802,0.495314
"24-Mar-2023 10:38:53.380",3.345166,-9.12802,0.6335
"24-Mar-2023 10:38:53.447",2.782254,-8.919845,0.838086
"24-Mar-2023 10:38:53.514",2.881557,-9.113664,1.108475
"24-Mar-2023 10:38:53.581",2.167299,-8.835498,1.359721
"24-Mar-2023 10:38:53.648",4.332205,-10.49492,-0.064606
"24-Mar-2023 10:38:53.715",2.3671,-8.468798,-0.04666
"24-Mar-2023 10:38:53.782",3.343371,-9.987043,0.15015
"24-Mar-2023 10:38:53.849",2.088934,-9.025128,-0.23988
"24-Mar-2023 10:38:53.916",2.941377,-9.193225,0.004187
"24-Mar-2023 10:38:53.983",2.109871,-9.616755,0.014955
"24-Mar-2023 10:38:54.050",2.273181,-9.334999,0.104686
"24-Mar-2023 10:38:54.117",2.620141,-10.022936,0.378066
"24-Mar-2023 10:38:54.184",2.283351,-9.549755,0.142971
"24-Mar-2023 10:38:54.250",3.455236,-8.834301,0.294317
"24-Mar-2023 10:38:54.318",3.281158,-8.894122,0.015553
"24-Mar-2023 10:38:54.385",3.311666,-9.108279,0.792623
"24-Mar-2023 10:38:54.452",3.628117,-9.827323,0.54676
"24-Mar-2023 10:38:54.519",3.710072,-9.182457,0.666401
"24-Mar-2023 10:38:54.586",3.01376,-8.87139,0.798605
"24-Mar-2023 10:38:54.653",3.072983,-8.965906,1.250848
"24-Mar-2023 10:38:54.720",2.978466,-9.915258,1.287937
"24-Mar-2023 10:38:54.787",2.620739,-9.011969,1.906481
"24-Mar-2023 10:38:54.854",2.77388,-8.755338,1.231705
"24-Mar-2023 10:38:54.921",3.025724,-11.344971,0.259621
"24-Mar-2023 10:38:54.988",2.379662,-7.210173,-0.207577
"24-Mar-2023 10:38:55.055",2.909672,-10.476974,0.217747
"24-Mar-2023 10:38:55.122",2.392225,-8.95813,-0.120838
"24-Mar-2023 10:38:55.189",3.058625,-9.995419,0.057428
"24-Mar-2023 10:38:55.256",2.032105,-9.430713,-0.120838
"24-Mar-2023 10:38:55.323",2.452643,-9.683753,0.027517
"24-Mar-2023 10:38:55.390",2.548356,-9.32483,0.005384
"24-Mar-2023 10:38:55.457",2.26361,-9.669396,-0.044865
"24-Mar-2023 10:38:55.524",2.475375,-9.415757,-0.045464
"24-Mar-2023 10:38:55.591",2.866003,-9.159127,-0.126221
"24-Mar-2023 10:38:55.658",3.276971,-9.457033,0.144168
"24-Mar-2023 10:38:55.725",3.547958,-9.006584,-0.005982
"24-Mar-2023 10:38:55.792",3.076572,-9.084949,0.696311
"24-Mar-2023 10:38:55.859",3.636492,-9.399606,0.72682
"24-Mar-2023 10:38:55.926",3.235096,-9.448658,1.031905
"24-Mar-2023 10:38:55.993",2.876771,-9.275777,1.062413
"24-Mar-2023 10:38:56.060",2.976073,-9.252447,1.38365
"24-Mar-2023 10:38:56.127",2.828316,-8.968898,1.534996
"24-Mar-2023 10:38:56.194",2.438884,-8.64467,1.179063
"24-Mar-2023 10:38:56.261",3.61735,-10.741979,-0.369093
"24-Mar-2023 10:38:56.328",2.194218,-7.847262,0.16989
"24-Mar-2023 10:38:56.395",2.754737,-11.434103,0.382253
"24-Mar-2023 10:38:56.462",2.492125,-9.053245,0.334995
"24-Mar-2023 10:38:56.528",2.335993,-9.498309,0.394218
"24-Mar-2023 10:38:56.596",1.832304,-9.318848,0.363111
"24-Mar-2023 10:38:56.663",2.094318,-9.552148,0.460618
"24-Mar-2023 10:38:56.730",2.823531,-9.635897,0.288933
"24-Mar-2023 10:38:56.797",2.705086,-9.285947,-0.285942
"24-Mar-2023 10:38:56.864",4.015755,-9.159725,-0.150748
"24-Mar-2023 10:38:56.931",3.119642,-8.725428,0.187837
"24-Mar-2023 10:38:56.998",3.701098,-9.594023,0.530608
"24-Mar-2023 10:38:57.065",3.255435,-9.603594,0.802194
"24-Mar-2023 10:38:57.132",3.21715,-9.489336,0.708275
"24-Mar-2023 10:38:57.199",2.813361,-9.177073,1.036092
"24-Mar-2023 10:38:57.266",2.786442,-8.85823,1.381257
"24-Mar-2023 10:38:57.333",2.119443,-8.832506,1.90708
"24-Mar-2023 10:38:57.400",4.206582,-10.533804,0.13998
"24-Mar-2023 10:38:57.467",2.434697,-8.222935,-0.111864
"24-Mar-2023 10:38:57.534",2.487937,-11.002198,0.71665
"24-Mar-2023 10:38:57.601",2.2672,-9.320642,0.178863
"24-Mar-2023 10:38:57.667",2.433501,-9.462418,0.482154
"24-Mar-2023 10:38:57.735",2.002194,-9.115458,0.165703
"24-Mar-2023 10:38:57.802",2.465804,-9.474979,0.575474
"24-Mar-2023 10:38:57.869",2.380858,-9.87159,0.028714
"24-Mar-2023 10:38:57.936",2.925824,-8.746365,0.21655
"24-Mar-2023 10:38:58.003",3.709473,-9.902099,-0.450449
"24-Mar-2023 10:38:58.070",3.294917,-7.950153,0.902094
"24-Mar-2023 10:38:58.137",3.704089,-10.915459,0.665205
"24-Mar-2023 10:38:58.204",3.361916,-9.132208,0.908674
"24-Mar-2023 10:38:58.271",2.692524,-9.325428,0.875773
"24-Mar-2023 10:38:58.338",3.28056,-8.763115,1.056431
"24-Mar-2023 10:38:58.405",2.550151,-8.833703,1.089332
"24-Mar-2023 10:38:58.472",1.994418,-9.060423,1.795813
"24-Mar-2023 10:38:58.539",4.732405,-10.913066,-0.031107
"24-Mar-2023 10:38:58.606",2.032105,-8.338388,0.784248
"24-Mar-2023 10:38:58.673",2.91386,-9.376275,-0.139382
"24-Mar-2023 10:38:58.740",3.07717,-9.425926,0.010169
"24-Mar-2023 10:38:58.807",2.586043,-9.883554,-0.166301
"24-Mar-2023 10:38:58.874",2.480161,-9.764511,0.11007
"24-Mar-2023 10:38:58.941",2.417947,-9.295518,0.106481
"24-Mar-2023 10:38:59.008",2.432304,-9.229715,0.079561
"24-Mar-2023 10:38:59.075",2.571686,-9.204591,0.178265
"24-Mar-2023 10:38:59.142",2.834298,-9.775877,-0.035294
"24-Mar-2023 10:38:59.209",2.729612,-9.165708,-0.253639
"24-Mar-2023 10:38:59.276",3.550949,-9.310472,0.098704
"24-Mar-2023 10:38:59.343",2.804388,-8.950952,0.016152
"24-Mar-2023 10:38:59.410",3.293122,-9.342177,-0.074776
"24-Mar-2023 10:38:59.477",3.559324,-9.019147,-0.230907
"24-Mar-2023 10:38:59.544",3.215954,-9.073584,0.815953
"24-Mar-2023 10:38:59.611",3.410371,-10.146765,0.522234
"24-Mar-2023 10:38:59.678",3.631108,-9.515657,0.887139
"24-Mar-2023 10:38:59.745",2.662613,-8.927621,0.995414
"24-Mar-2023 10:38:59.812",2.898905,-8.684152,1.164706
"24-Mar-2023 10:38:59.879",2.644069,-9.042477,1.365105
"24-Mar-2023 10:38:59.946",3.882953,-10.753943,-0.352941
"24-Mar-2023 10:39:00.013",1.996212,-7.50449,-0.081954
"24-Mar-2023 10:39:00.080",3.18365,-11.12842,0.314058
"24-Mar-2023 10:39:00.147",2.267798,-9.586246,-0.11007
"24-Mar-2023 10:39:00.214",2.790031,-9.695718,0.156132
"24-Mar-2023 10:39:00.281",2.289931,-8.967701,0.203988
"24-Mar-2023 10:39:00.348",2.53041,-9.150154,0.107677
"24-Mar-2023 10:39:00.415",2.888137,-9.88834,-0.088534
"24-Mar-2023 10:39:00.482",3.089134,-9.099306,-0.377468
"24-Mar-2023 10:39:00.549",3.279363,-9.093325,0.248255
"24-Mar-2023 10:39:00.616",2.853441,-9.004191,-0.165105
"24-Mar-2023 10:39:00.683",3.184847,-9.18485,0.138186
"24-Mar-2023 10:39:00.750",3.019742,-9.215957,0.154337
"24-Mar-2023 10:39:00.817",3.690331,-9.399606,0.446261
"24-Mar-2023 10:39:00.884",2.865405,-9.847063,0.952343
"24-Mar-2023 10:39:00.951",3.271587,-9.70828,0.87697
"24-Mar-2023 10:39:01.018",3.025724,-9.023932,1.059422
"24-Mar-2023 10:39:01.085",2.783451,-8.986245,1.081556
"24-Mar-2023 10:39:01.152",2.899503,-8.898309,1.210768
"24-Mar-2023 10:39:01.219",2.863611,-9.148359,1.39681
"24-Mar-2023 10:39:01.286",2.396412,-9.038289,1.379462
"24-Mar-2023 10:39:01.353",3.89731,-10.699507,0.500698
"24-Mar-2023 10:39:01.420",1.834099,-7.907681,-0.507877
"24-Mar-2023 10:39:01.487",3.739384,-10.743176,0.501296
"24-Mar-2023 10:39:01.554",2.289931,-9.525827,-0.535992
"24-Mar-2023 10:39:01.621",3.025126,-9.17468,-0.251845
"24-Mar-2023 10:39:01.688",2.535794,-8.759525,-0.395414
"24-Mar-2023 10:39:01.755",3.151946,-10.359127,-0.376271
"24-Mar-2023 10:39:01.822",3.626323,-8.514859,0.017348
"24-Mar-2023 10:39:01.889",2.757728,-9.729217,0.150748
"24-Mar-2023 10:39:01.956",3.531806,-8.575278,0.14656
"24-Mar-2023 10:39:02.023",3.546163,-9.265608,-0.359522
"24-Mar-2023 10:39:02.090",3.766901,-8.369495,-0.198006
"24-Mar-2023 10:39:02.157",3.683152,-9.152547,0.094516
"24-Mar-2023 10:39:02.224",2.915654,-8.802596,-0.043669
"24-Mar-2023 10:39:02.291",4.015755,-9.890134,0.278764
"24-Mar-2023 10:39:02.358",3.688536,-8.262417,-0.188435
"24-Mar-2023 10:39:02.425",3.058027,-8.758329,-0.171685
"24-Mar-2023 10:39:02.492",3.482155,-8.149356,-0.312263
"24-Mar-2023 10:39:02.559",4.099504,-7.842476,-0.297906
"24-Mar-2023 10:39:02.626",4.077968,-8.562716,-0.335593
"24-Mar-2023 10:39:02.693",4.383651,-9.750752,-0.586242
"24-Mar-2023 10:39:02.760",4.505087,-9.33141,-0.55992
"24-Mar-2023 10:39:02.827",4.978268,-8.800203,-0.969691
"24-Mar-2023 10:39:02.894",4.406981,-7.779665,-1.269991
"24-Mar-2023 10:39:02.961",4.529613,-7.073782,-1.43031
"24-Mar-2023 10:39:03.028",4.366901,-7.585248,-1.508076
"24-Mar-2023 10:39:03.095",5.425725,-8.073982,-1.871786
"24-Mar-2023 10:39:03.162",6.028119,-8.886943,-2.288735
"24-Mar-2023 10:39:03.229",6.714859,-9.19143,-2.548356
"24-Mar-2023 10:39:03.296",6.419345,-8.015358,-2.657828
"24-Mar-2023 10:39:03.363",5.57767,-6.665207,-2.74696
"24-Mar-2023 10:39:03.430",5.687141,-5.973682,-3.15374
"24-Mar-2023 10:39:03.497",6.147759,-5.702694,-3.714857
"24-Mar-2023 10:39:03.564",6.6012,-5.580661,-4.658227
"24-Mar-2023 10:39:03.631",7.159924,-5.249853,-5.529215
"24-Mar-2023 10:39:03.698",6.943971,-4.765904,-5.899504
"24-Mar-2023 10:39:03.765",6.719046,-4.235894,-6.106483
"24-Mar-2023 10:39:03.832",6.664011,-4.05404,-6.180661
"24-Mar-2023 10:39:03.899",6.955935,-3.755535,-6.668797
"24-Mar-2023 10:39:03.966",6.706484,-3.701098,-6.48455
"24-Mar-2023 10:39:04.033",6.623931,-3.63709,-6.482755
"24-Mar-2023 10:39:04.100",6.402595,-3.56052,-6.491129
"24-Mar-2023 10:39:04.167",6.361917,-3.574279,-6.695118
"24-Mar-2023 10:39:04.234",6.189634,-3.323032,-6.837491
"24-Mar-2023 10:39:04.301",6.239883,-3.020939,-7.064809
"24-Mar-2023 10:39:04.368",6.178268,-3.006582,-7.237092
"24-Mar-2023 10:39:04.435",6.262017,-2.592025,-7.555337
"24-Mar-2023 10:39:04.502",5.928816,-2.550151,-7.226325
"24-Mar-2023 10:39:04.569",5.950352,-2.584847,-6.98764
"24-Mar-2023 10:39:04.636",6.215955,-2.89711,-7.319046
"24-Mar-2023 10:39:04.703",6.862017,-3.285346,-7.926823
"24-Mar-2023 10:39:04.770",7.223333,-3.647858,-8.145168
"24-Mar-2023 10:39:04.837",7.090532,-3.908077,-7.718647
"24-Mar-2023 10:39:04.904",7.264609,-4.289733,-7.339983
"24-Mar-2023 10:39:04.971",7.12104,-4.759923,-6.326025
"24-Mar-2023 10:39:05.038",6.984051,-5.227121,-5.411967
"24-Mar-2023 10:39:05.105",6.852446,-5.648856,-4.414758
"24-Mar-2023 10:39:05.172",6.474978,-6.266204,-3.501896
"24-Mar-2023 10:39:05.239",5.985646,-6.748956,-2.859423
"24-Mar-2023 10:39:05.306",5.723033,-6.710671,-2.112862
"24-Mar-2023 10:39:05.373",4.94058,-7.033104,-1.726422
"24-Mar-2023 10:39:05.440",4.965107,-7.74796,-1.14018
"24-Mar-2023 10:39:05.507",4.176074,-7.483553,-0.908076
"24-Mar-2023 10:39:05.574",4.365705,-7.246065,-0.620339
"24-Mar-2023 10:39:05.641",4.095316,-7.857431,-0.662214
"24-Mar-2023 10:39:05.708",4.040281,-8.175676,-0.473779
"24-Mar-2023 10:39:05.775",4.150949,-8.647063,-0.415155
"24-Mar-2023 10:39:05.842",3.586243,-8.58784,-0.331406
"24-Mar-2023 10:39:05.909",4.037888,-9.186645,-0.022134
"24-Mar-2023 10:39:05.976",3.480959,-8.807382,0.066999
"24-Mar-2023 10:39:06.043",3.608377,-9.212367,0.295514
"24-Mar-2023 10:39:06.110",3.95055,-9.407382,0.224925
"24-Mar-2023 10:39:06.177",3.849453,-8.692527,0.052642
"24-Mar-2023 10:39:06.244",3.814758,-7.905886,-0.551546
"24-Mar-2023 10:39:06.311",4.063611,-8.537591,-0.239282
"24-Mar-2023 10:39:06.378",4.210171,-9.268599,0.381655
"24-Mar-2023 10:39:06.445",4.158726,-9.722636,0.653241
"24-Mar-2023 10:39:06.512",4.438686,-9.276375,0.80339
"24-Mar-2023 10:39:06.579",4.286144,-9.001201,0.775873
"24-Mar-2023 10:39:06.646",4.069593,-8.484351,0.672383
"24-Mar-2023 10:39:06.713",3.983452,-8.645268,0.991227
"24-Mar-2023 10:39:06.780",3.436692,-8.405986,1.169492
"24-Mar-2023 10:39:06.847",5.093721,-9.699306,0.247657
"24-Mar-2023 10:39:06.914",3.465405,-8.302496,0.675972
"24-Mar-2023 10:39:06.981",3.568895,-8.696115,0.350549
"24-Mar-2023 10:39:07.048",3.136991,-9.171689,0.391227
"24-Mar-2023 10:39:07.115",3.376871,-8.949157,0.643669
"24-Mar-2023 10:39:07.182",3.250649,-9.323035,0.879362
"24-Mar-2023 10:39:07.249",2.486143,-9.192626,0.746561
"24-Mar-2023 10:39:07.316",3.133999,-9.959526,1.484746
"24-Mar-2023 10:39:07.383",2.545963,-9.61496,1.153939
"24-Mar-2023 10:39:07.450",2.839084,-9.023932,0.952942
"24-Mar-2023 10:39:07.517",3.074777,-8.99163,1.003789
"24-Mar-2023 10:39:07.584",2.854637,-9.921241,0.023928
"24-Mar-2023 10:39:07.651",4.262215,-8.190632,0.389432
"24-Mar-2023 10:39:07.718",4.523033,-9.392427,-0.031107
"24-Mar-2023 10:39:07.785",5.002794,-8.567501,0.747159
"24-Mar-2023 10:39:07.852",4.337589,-9.040682,0.879362
"24-Mar-2023 10:39:07.919",4.591826,-8.944969,1.174278
"24-Mar-2023 10:39:07.986",3.59402,-8.512466,1.218545
"24-Mar-2023 10:39:08.053",3.099303,-8.42453,1.516451
"24-Mar-2023 10:39:08.120",4.783851,-8.57468,0.182453
"24-Mar-2023 10:39:08.187",4.383651,-10.6349,0.399003
"24-Mar-2023 10:39:08.254",3.248257,-7.201798,-0.214756
"24-Mar-2023 10:39:08.321",4.798208,-9.504889,0.108873
"24-Mar-2023 10:39:08.388",2.655435,-8.932407,-0.264407
"24-Mar-2023 10:39:08.455",3.974478,-9.846465,0.909273
"24-Mar-2023 10:39:08.522",2.611168,-9.74477,0.473779
"24-Mar-2023 10:39:08.589",3.028715,-9.386445,0.172881
"24-Mar-2023 10:39:08.656",2.852245,-8.733803,0.412164
"24-Mar-2023 10:39:08.723",2.372484,-9.061021,0.187238
"24-Mar-2023 10:39:08.790",3.472584,-9.579067,-0.160319
"24-Mar-2023 10:39:08.857",5.335396,-7.944769,-0.427717
"24-Mar-2023 10:39:08.924",4.353143,-8.852845,1.086342
"24-Mar-2023 10:39:08.991",3.966104,-9.84168,1.164108
"24-Mar-2023 10:39:09.058",4.674977,-8.367701,0.927219
"24-Mar-2023 10:39:09.125",3.739384,-8.605188,1.020539
"24-Mar-2023 10:39:09.192",3.071786,-8.592028,1.08335
"24-Mar-2023 10:39:09.259",5.758327,-10.044471,0.068794
"24-Mar-2023 10:39:09.326",3.092723,-8.093124,-0.260219
"24-Mar-2023 10:39:09.393",4.372285,-8.828918,0.065204
"24-Mar-2023 10:39:09.460",3.847061,-8.664411,0.058624
"24-Mar-2023 10:39:09.527",3.629912,-9.135199,-0.190828
"24-Mar-2023 10:39:09.594",3.311666,-9.575478,0.295514
"24-Mar-2023 10:39:09.661",3.443272,-10.043873,0.37687
"24-Mar-2023 10:39:09.728",2.686542,-9.209974,0.295514
"24-Mar-2023 10:39:09.795",3.133401,-9.338589,0.170489
"24-Mar-2023 10:39:09.862",2.818147,-9.02812,0.439083
"24-Mar-2023 10:39:09.929",2.916851,-8.982058,0.349352
"24-Mar-2023 10:39:09.996",3.547958,-8.402995,-0.04666
"24-Mar-2023 10:39:10.063",5.985646,-9.638887,-0.245863
"24-Mar-2023 10:39:10.130",4.116851,-8.42812,0.885943
"24-Mar-2023 10:39:10.197",5.201398,-9.270991,1.077368
"24-Mar-2023 10:39:10.264",3.743571,-8.083553,0.597607
"24-Mar-2023 10:39:10.331",3.692724,-8.642876,1.042673
"24-Mar-2023 10:39:10.398",4.051647,-8.387442,0.114257
"24-Mar-2023 10:39:10.465",5.185845,-11.091929,0.253041
"24-Mar-2023 10:39:10.532",3.251846,-7.263413,-0.393021
"24-Mar-2023 10:39:10.599",4.342973,-9.557532,-0.382852
"24-Mar-2023 10:39:10.666",3.256632,-8.571091,-0.39003
"24-Mar-2023 10:39:10.733",3.760321,-9.274581,-0.017348
"24-Mar-2023 10:39:10.800",3.370291,-9.550952,0.230309
"24-Mar-2023 10:39:10.867",3.29731,-9.518648,0.393619
"24-Mar-2023 10:39:10.934",3.248855,-9.429516,0.342772
"24-Mar-2023 10:39:11.001",3.142972,-9.177073,0.297308
"24-Mar-2023 10:39:11.068",2.715255,-9.189635,0.125025
"24-Mar-2023 10:39:11.135",3.443272,-8.569894,-0.015553
"24-Mar-2023 10:39:11.202",4.0008,-8.599206,-0.49352
"24-Mar-2023 10:39:11.269",5.671588,-9.443872,0.434297
"24-Mar-2023 10:39:11.336",3.749553,-8.533403,0.932603
"24-Mar-2023 10:39:11.403",5.459225,-9.067003,0.760319
"24-Mar-2023 10:39:11.470",3.802794,-8.384451,0.488136
"24-Mar-2023 10:39:11.537",3.777071,-8.670991,0.888335
"24-Mar-2023 10:39:11.604",4.051647,-8.035697,0.41336
"24-Mar-2023 10:39:11.671",5.383851,-11.457433,0.323031
"24-Mar-2023 10:39:11.738",3.209373,-7.459625,0.166301
"24-Mar-2023 10:39:11.805",4.448855,-8.740981,0.007178
"24-Mar-2023 10:39:11.872",3.552145,-8.445468,-0.507278
"24-Mar-2023 10:39:11.939",4.028317,-9.041879,-0.422333
"24-Mar-2023 10:39:12.006",3.734598,-9.163913,-0.151346
"24-Mar-2023 10:39:12.073",3.92722,-9.803992,0.230907
"24-Mar-2023 10:39:12.140",3.027519,-9.456435,0.010169
"24-Mar-2023 10:39:12.207",3.644269,-9.129216,0.209372
"24-Mar-2023 10:39:12.274",2.879164,-9.1681,-0.003589
"24-Mar-2023 10:39:12.341",3.020939,-8.711669,0.20997
"24-Mar-2023 10:39:12.408",3.352943,-9.114262,-0.607179
"24-Mar-2023 10:39:12.475",4.776074,-9.494123,-0.065803
"24-Mar-2023 10:39:12.542",4.326223,-8.831908,0.823729
"24-Mar-2023 10:39:12.609",4.348357,-9.491729,0.48335
"24-Mar-2023 10:39:12.676",4.129414,-8.225926,0.554537
"24-Mar-2023 10:39:12.743",3.649055,-8.790034,0.873978
"24-Mar-2023 10:39:12.810",3.704688,-7.869994,0.473779
"24-Mar-2023 10:39:12.877",4.908875,-10.605588,-0.294317
"24-Mar-2023 10:39:12.944",3.120241,-7.908877,-0.08674
"24-Mar-2023 10:39:13.011",3.823132,-9.145369,-0.161516
"24-Mar-2023 10:39:13.078",3.412763,-9.104691,-0.357727
"24-Mar-2023 10:39:13.145",3.293122,-9.16152,-0.039482
"24-Mar-2023 10:39:13.212",3.426522,-9.323633,-0.204586
"24-Mar-2023 10:39:13.279",3.591029,-9.988838,-0.198006
"24-Mar-2023 10:39:13.346",3.610171,-9.865009,-0.183649
"24-Mar-2023 10:39:13.413",2.663212,-8.991031,-0.385843
"24-Mar-2023 10:39:13.480",3.172285,-6.501897,-0.762712
"24-Mar-2023 10:39:13.547",3.875774,-7.66122,-1.133002
"24-Mar-2023 10:39:13.614",6.765706,-11.55195,0.827917
"24-Mar-2023 10:39:13.681",5.017749,-8.686544,-0.687338
"24-Mar-2023 10:39:13.748",6.175875,-9.92483,1.844866
"24-Mar-2023 10:39:13.815",1.671985,-8.319844,1.131207
"24-Mar-2023 10:39:13.882",3.978068,-7.728817,1.855036
"24-Mar-2023 10:39:13.949",5.125426,-9.443872,2.639283
"24-Mar-2023 10:39:14.016",3.202793,-9.201001,2.285744
"24-Mar-2023 10:39:14.083",2.071586,-5.896513,0.417548
"24-Mar-2023 10:39:14.150",4.57747,-2.845066,1.864607
"24-Mar-2023 10:39:14.217",8.359326,-6.407979,2.978466
"24-Mar-2023 10:39:14.284",3.826722,-7.258627,3.086741
"24-Mar-2023 10:39:14.351",2.71705,-3.546761,1.706083
"24-Mar-2023 10:39:14.418",4.661817,-3.197409,1.893321
"24-Mar-2023 10:39:14.485",2.603989,-2.109273,1.936392
"24-Mar-2023 10:39:14.552",-1.566701,-4.813163,3.378067
"24-Mar-2023 10:39:14.619",-7.178468,-13.700705,11.389835
"24-Mar-2023 10:39:14.686",-17.986847,-22.134806,21.949362
"24-Mar-2023 10:39:14.753",-5.201996,-6.686145,8.402397
"24-Mar-2023 10:39:14.820",-7.781459,-1.521237,5.28754
"24-Mar-2023 10:39:14.887",-5.781658,-2.565704,5.478367
"24-Mar-2023 10:39:14.954",-4.728218,-1.704886,5.236692
"24-Mar-2023 10:39:15.021",-4.70728,-1.395614,6.783652
"24-Mar-2023 10:39:15.088",-5.319245,-2.022533,9.59163
"24-Mar-2023 10:39:15.155",-5.654838,-1.644467,8.764311
"24-Mar-2023 10:39:15.222",-5.368896,-1.789831,6.525826
"24-Mar-2023 10:39:15.289",-5.325227,-1.338186,7.341778
"24-Mar-2023 10:39:15.356",-5.422136,-3.172883,8.761918
"24-Mar-2023 10:39:15.423",-4.716253,-1.785046,8.924032
"24-Mar-2023 10:39:15.490",-4.688138,-1.055833,7.645068
"24-Mar-2023 10:39:15.557",-3.948157,-1.508675,7.925029
"24-Mar-2023 10:39:15.624",-4.93759,-1.44706,8.578867
"24-Mar-2023 10:39:15.691",-4.706084,-1.625325,8.420342
"24-Mar-2023 10:39:15.758",-4.764708,-1.228116,8.212766
"24-Mar-2023 10:39:15.825",-5.091927,-1.03011,8.317451
"24-Mar-2023 10:39:15.892",-5.142176,-1.079761,8.507083
"24-Mar-2023 10:39:15.959",-4.907679,-1.013959,8.49452
"24-Mar-2023 10:39:16.026",-4.855635,-1.096511,8.343773
"24-Mar-2023 10:39:16.093",-4.86401,-1.117448,8.356335
"24-Mar-2023 10:39:16.160",-4.785645,-1.135394,8.454441
"24-Mar-2023 10:39:16.227",-4.782654,-1.022932,8.481359
"24-Mar-2023 10:39:16.294",-4.856234,-0.910469,8.461619
"24-Mar-2023 10:39:16.361",-4.709673,-0.918844,8.582457
"24-Mar-2023 10:39:16.428",-4.610371,-1.063011,8.440084
"24-Mar-2023 10:39:16.495",-4.725226,-1.149153,8.530413
"24-Mar-2023 10:39:16.562",-4.77428,-1.30349,8.35813
"24-Mar-2023 10:39:16.629",-4.764708,-1.433301,8.40479
"24-Mar-2023 10:39:16.696",-4.585845,-1.662413,8.152347
"24-Mar-2023 10:39:16.763",-4.494319,-0.598804,8.461619
"24-Mar-2023 10:39:16.830",-4.625925,-1.433301,8.734999
"24-Mar-2023 10:39:16.897",-4.628317,-0.154337,8.572288
"24-Mar-2023 10:39:16.964",-4.808377,-1.243071,8.630313
"24-Mar-2023 10:39:17.031",-4.68754,-0.532403,8.523832
"24-Mar-2023 10:39:17.098",-4.656433,-0.358923,8.676973
"24-Mar-2023 10:39:17.165",-4.667201,-0.714258,8.915059
"24-Mar-2023 10:39:17.232",-4.626523,-0.499502,8.578269
"24-Mar-2023 10:39:17.299",-4.475775,-0.457627,8.611769
"24-Mar-2023 10:39:17.366",-4.755735,-0.702892,8.939586
"24-Mar-2023 10:39:17.433",-4.465605,-1.006182,8.319246
"24-Mar-2023 10:39:17.500",-4.430909,0.104686,8.251649
"24-Mar-2023 10:39:17.567",-4.546961,-1.551746,9.004789
"24-Mar-2023 10:39:17.634",-4.64088,-0.096909,8.49811
"24-Mar-2023 10:39:17.701",-4.466204,-0.77348,8.566903
"24-Mar-2023 10:39:17.768",-4.842475,-0.623928,8.76491
"24-Mar-2023 10:39:17.835",-4.424927,-0.565304,8.518449
"24-Mar-2023 10:39:17.902",-4.479364,-0.510269,8.47119
"24-Mar-2023 10:39:17.969",-4.627719,-0.632902,8.498708
"24-Mar-2023 10:39:18.036",-4.823332,-0.644267,8.706883
"24-Mar-2023 10:39:18.103",-4.435097,-0.798006,8.581261
"24-Mar-2023 10:39:18.170",-4.413561,-0.784248,8.76491
"24-Mar-2023 10:39:18.237",-4.311268,-0.783051,8.819346
"24-Mar-2023 10:39:18.304",-4.42732,-0.597009,8.82832
"24-Mar-2023 10:39:18.371",-3.977469,-1.188036,8.136195
"24-Mar-2023 10:39:18.438",-4.615755,0.008375,8.700901
"24-Mar-2023 10:39:18.505",-4.602594,-0.331406,8.459825
"24-Mar-2023 10:39:18.572",-4.645067,-0.631705,9.09811
"24-Mar-2023 10:39:18.639",-3.823132,-0.522234,8.613564
"24-Mar-2023 10:39:18.706",-4.202395,-0.614955,8.751749
"24-Mar-2023 10:39:18.773",-4.559524,-0.288335,8.793623
"24-Mar-2023 10:39:18.840",-4.629514,-0.884746,8.771489
"24-Mar-2023 10:39:18.907",-4.551149,-0.214756,8.678169
"24-Mar-2023 10:39:18.973",-4.281956,-0.443869,8.778069
"24-Mar-2023 10:39:19.041",-4.348357,-0.677767,9.102896
"24-Mar-2023 10:39:19.108",-4.469194,-0.529412,8.799605
"24-Mar-2023 10:39:19.175",-4.221537,-0.337388,8.470592
"24-Mar-2023 10:39:19.242",-4.320241,-0.634098,8.737391
"24-Mar-2023 10:39:19.309",-4.42732,-0.235693,8.574081
"24-Mar-2023 10:39:19.376",-4.113262,-0.620937,8.79123
"24-Mar-2023 10:39:19.510",-4.265206,-0.832104,8.889337
"24-Mar-2023 10:39:19.526",-4.430909,-1.005584,8.925827
"24-Mar-2023 10:39:19.593",-4.713861,-0.94696,8.539386
"24-Mar-2023 10:39:19.660",-4.365705,-1.101297,8.552547
"24-Mar-2023 10:39:19.727",-4.701897,-1.251446,8.620144
"24-Mar-2023 10:39:19.794",-4.286742,-1.376471,8.549556
"24-Mar-2023 10:39:19.861",-4.442873,-0.802792,8.772088
"24-Mar-2023 10:39:19.928",-4.495515,-0.65025,8.620144
"24-Mar-2023 10:39:19.995",-4.409374,-0.601795,8.580662
"24-Mar-2023 10:39:20.062",-4.235296,-0.710668,8.742776
"24-Mar-2023 10:39:20.129",-4.311866,-0.8333,8.733803
"24-Mar-2023 10:39:20.196",-4.371089,-1.015753,8.595019
"24-Mar-2023 10:39:20.263",-4.482355,-0.972084,8.65484
"24-Mar-2023 10:39:20.330",-4.462016,-0.878764,8.712267
"24-Mar-2023 10:39:20.397",-4.411169,-0.766301,8.72782
"24-Mar-2023 10:39:20.464",-4.143172,-0.811765,8.7679
"24-Mar-2023 10:39:20.531",-4.278367,-0.932603,8.729017
"24-Mar-2023 10:39:20.598",-4.508676,-0.659821,8.639286
"24-Mar-2023 10:39:20.665",-4.494917,-0.994218,8.577671
"24-Mar-2023 10:39:20.732",-4.462614,-1.046262,8.698508
"24-Mar-2023 10:39:20.798",-4.295116,-1.195813,8.589037
"24-Mar-2023 10:39:20.865",-4.392624,-1.159323,8.618947
"24-Mar-2023 10:39:20.932",-4.4339,-1.057628,8.799007
"24-Mar-2023 10:39:20.999",-4.548158,-1.051646,8.598608
"24-Mar-2023 10:39:21.066",-5.026722,-1.109073,8.513663
"24-Mar-2023 10:39:21.133",-4.353143,-1.613361,8.913862
"24-Mar-2023 10:39:21.200",-3.800999,-1.657628,8.931211
"24-Mar-2023 10:39:21.267",-3.842873,-1.470988,9.035298
"24-Mar-2023 10:39:21.334",-4.042076,-1.624727,8.779266
"24-Mar-2023 10:39:21.401",-4.381258,-0.754936,8.636295
"24-Mar-2023 10:39:21.468",-4.837689,-0.81356,8.335996
"24-Mar-2023 10:39:21.535",-4.612165,-1.115654,8.634501
"24-Mar-2023 10:39:21.602",-4.519444,-1.234697,8.831908
"24-Mar-2023 10:39:21.669",-4.308876,-1.339981,8.805588
"24-Mar-2023 10:39:21.736",-4.47757,-1.210768,8.595617
"24-Mar-2023 10:39:21.803",-4.004987,-1.047458,8.392825
"24-Mar-2023 10:39:21.870",-4.423132,-0.757927,8.22473
"24-Mar-2023 10:39:21.937",-3.895515,-0.847657,8.541779
"24-Mar-2023 10:39:22.004",-4.335196,-1.033699,8.969496
"24-Mar-2023 10:39:22.071",-4.628915,-1.718047,8.838489
"24-Mar-2023 10:39:22.138",-4.386642,-1.244268,8.467601
"24-Mar-2023 10:39:22.205",-4.845466,-1.505085,8.404191
"24-Mar-2023 10:39:22.272",-4.672585,-1.298106,8.519047
"24-Mar-2023 10:39:22.339",-4.917849,-1.601995,8.52802
"24-Mar-2023 10:39:22.406",-5.507679,-1.82034,8.073982
"24-Mar-2023 10:39:22.473",-5.396413,-2.041078,7.855637
"24-Mar-2023 10:39:22.540",-5.070391,-2.065006,7.992028
"24-Mar-2023 10:39:22.673",-5.343771,-1.421337,8.511868
"24-Mar-2023 10:39:22.690",-5.171488,-2.002793,8.572886
"24-Mar-2023 10:39:22.757",-4.926822,-1.231107,8.529217
"24-Mar-2023 10:39:22.824",-4.822136,-0.87697,8.269595
"24-Mar-2023 10:39:22.891",-4.491328,-1.109073,8.526225
"24-Mar-2023 10:39:22.958",-4.401597,-0.788435,8.572288
"24-Mar-2023 10:39:23.025",-4.499105,-1.064208,8.520244
"24-Mar-2023 10:39:23.092",-4.779663,-1.367498,8.410173
"24-Mar-2023 10:39:23.159",-4.409972,-1.160519,8.210971
"24-Mar-2023 10:39:23.226",-5.099703,-0.76331,8.412566
"24-Mar-2023 10:39:23.293",-5.052445,-1.339981,8.863015
"24-Mar-2023 10:39:23.360",-4.852644,-0.75673,8.391629
"24-Mar-2023 10:39:23.427",-4.733003,-0.646062,8.536395
"24-Mar-2023 10:39:23.494",-4.517051,-0.670589,8.688937
"24-Mar-2023 10:39:23.561",-4.102494,-0.914656,8.614759
"24-Mar-2023 10:39:23.628",-4.542774,-0.629312,8.603394
"24-Mar-2023 10:39:23.695",-4.553542,-1.386641,8.730812
"24-Mar-2023 10:39:23.762",-4.82752,-0.492323,8.300103
"24-Mar-2023 10:39:23.829",-4.720441,-1.220938,8.53161
"24-Mar-2023 10:39:23.896",-4.805984,-0.457627,8.715259
"24-Mar-2023 10:39:23.963",-4.573282,-0.951147,8.610572
"24-Mar-2023 10:39:24.030",-4.504488,-0.730409,8.617152
"24-Mar-2023 10:39:24.097",-4.423132,-0.715454,8.59801
"24-Mar-2023 10:39:24.164",-4.326223,-1.045663,8.611769
"24-Mar-2023 10:39:24.231",-4.588836,-0.565903,8.675776
"24-Mar-2023 10:39:24.298",-4.562515,-0.858425,8.688937
"24-Mar-2023 10:39:24.365",-4.265805,-1.182054,8.615358
"24-Mar-2023 10:39:24.432",-4.619344,-0.80997,8.618349
"24-Mar-2023 10:39:24.499",-4.533801,-1.183251,8.614161
"24-Mar-2023 10:39:24.566",-4.551747,-0.853639,8.651849
"24-Mar-2023 10:39:24.633",-4.585845,-0.955933,8.734999
"24-Mar-2023 10:39:24.700",-4.231109,-1.048056,8.620144
"24-Mar-2023 10:39:24.767",-4.433302,-0.562313,8.569296
"24-Mar-2023 10:39:24.834",-4.389035,-1.03669,8.750552
"24-Mar-2023 10:39:24.901",-4.370491,-0.778266,8.79123
"24-Mar-2023 10:39:24.968",-4.601398,-0.802194,8.823533
"24-Mar-2023 10:39:25.035",-4.425526,-1.241277,8.611769
"24-Mar-2023 10:39:25.102",-4.551149,-1.138385,8.434102
"24-Mar-2023 10:39:25.169",-4.511069,-1.404587,8.413164
"24-Mar-2023 10:39:25.236",-4.494917,-1.439283,8.645866
"24-Mar-2023 10:39:25.303",-4.462614,-1.390828,8.513064
"24-Mar-2023 10:39:25.370",-4.406981,-1.38365,8.542377
"24-Mar-2023 10:39:25.437",-4.484149,-1.319044,8.539984
"24-Mar-2023 10:39:25.504",-4.472186,-1.253839,8.595617
"24-Mar-2023 10:39:25.571",-4.557729,-1.068994,8.656634
"24-Mar-2023 10:39:25.638",-4.459623,-1.126421,8.656036
"24-Mar-2023 10:39:25.705",-4.499105,-1.185644,8.544769
"24-Mar-2023 10:39:25.772",-4.518247,-1.213759,8.547761
"24-Mar-2023 10:39:25.838",-4.522435,-1.205983,8.644072
"24-Mar-2023 10:39:25.906",-4.445865,-1.129412,8.563912
"24-Mar-2023 10:39:25.973",-4.47398,-1.108475,8.622537
"24-Mar-2023 10:39:26.040",-4.50748,-1.098306,8.566903
"24-Mar-2023 10:39:26.107",-4.546363,-1.15334,8.653045
"24-Mar-2023 10:39:26.174",-4.52064,-1.118046,8.580662
"24-Mar-2023 10:39:26.241",-4.498507,-1.122832,8.599805
"24-Mar-2023 10:39:26.308",-4.486542,-1.125225,8.630911
"24-Mar-2023 10:39:26.375",-4.459623,-1.101895,8.613564
"24-Mar-2023 10:39:26.442",-4.456632,-1.059422,8.645268
"24-Mar-2023 10:39:26.509",-4.486542,-1.017548,8.600403
"24-Mar-2023 10:39:26.576",-4.429713,-1.086342,8.618349
"24-Mar-2023 10:39:26.643",-4.445266,-1.065404,8.621938
"24-Mar-2023 10:39:26.710",-4.411767,-1.032503,8.672188
"24-Mar-2023 10:39:26.777",-4.435097,-1.011566,8.674581
"24-Mar-2023 10:39:26.844",-4.426722,-1.007977,8.650652
"24-Mar-2023 10:39:26.911",-4.419543,-1.006182,8.680562
"24-Mar-2023 10:39:26.995",-4.389633,-1.001396,8.691928
"24-Mar-2023 10:39:27.011",-4.380062,-1.010968,8.7015
"24-Mar-2023 10:39:27.078",-4.366303,-0.991825,8.687741
"24-Mar-2023 10:39:27.145",-4.36391,-1.004387,8.693125
"24-Mar-2023 10:39:27.212",-4.375875,-0.987638,8.697312
"24-Mar-2023 10:39:27.279",-4.360321,-0.974477,8.685348
"24-Mar-2023 10:39:27.346",-4.376472,-0.994816,8.680562
"24-Mar-2023 10:39:27.413",-4.356732,-1.012762,8.715857
"24-Mar-2023 10:39:27.480",-4.370491,-0.985245,8.713464
"24-Mar-2023 10:39:27.547",-4.347759,-0.987039,8.681161
"24-Mar-2023 10:39:27.614",-4.364509,-1.027119,8.705687
"24-Mar-2023 10:39:27.681",-4.412963,-1.081556,8.653643
"24-Mar-2023 10:39:27.748",-4.428516,-1.089931,8.669795
"24-Mar-2023 10:39:27.815",-4.39741,-1.071386,8.662018
"24-Mar-2023 10:39:27.882",-4.393821,-1.097109,8.659625
"24-Mar-2023 10:39:27.949",-4.398606,-1.133002,8.660223
"24-Mar-2023 10:39:28.016",-4.366303,-1.204786,8.65484
"24-Mar-2023 10:39:28.083",-4.408177,-1.240679,8.665009
"24-Mar-2023 10:39:28.150",-4.459025,-1.214357,8.623135
"24-Mar-2023 10:39:28.217",-4.441079,-1.215554,8.596813
"24-Mar-2023 10:39:28.284",-4.429115,-1.251446,8.616554
"24-Mar-2023 10:39:28.351",-4.436892,-1.239482,8.614759
"24-Mar-2023 10:39:28.418",-4.432704,-1.268196,8.615358
"24-Mar-2023 10:39:28.485",-4.430909,-1.277767,8.608179
"24-Mar-2023 10:39:28.552",-4.438088,-1.291526,8.596215
"24-Mar-2023 10:39:28.619",-4.457829,-1.225723,8.610572
"24-Mar-2023 10:39:28.686",-4.434499,-1.179063,8.642277
"24-Mar-2023 10:39:28.753",-4.423132,-1.167099,8.659027
"24-Mar-2023 10:39:28.820",-4.411169,-1.135394,8.645866
"24-Mar-2023 10:39:28.887",-4.365705,-1.157528,8.683554
"24-Mar-2023 10:39:28.954",-4.360919,-1.137787,8.656634
"24-Mar-2023 10:39:29.021",-4.372883,-1.146162,8.64467
"24-Mar-2023 10:39:29.088",-4.390231,-1.071386,8.687741
"24-Mar-2023 10:39:29.155",-4.375276,-1.063011,8.687142
"24-Mar-2023 10:39:29.222",-4.336991,-1.044467,8.693125
"24-Mar-2023 10:39:29.289",-4.322634,-1.062413,8.716455
"24-Mar-2023 10:39:29.356",-4.329215,-1.155135,8.719446
"24-Mar-2023 10:39:29.423",-4.24726,-0.954736,8.699107
"24-Mar-2023 10:39:29.490",-4.316054,-1.034896,8.735598
"24-Mar-2023 10:39:29.557",-4.281956,-1.037887,8.703294
"24-Mar-2023 10:39:29.624",-4.353143,-1.027717,8.68475
"24-Mar-2023 10:39:29.691",-4.295715,-1.014557,8.737391
"24-Mar-2023 10:39:29.758",-4.278367,-1.033101,8.705687
"24-Mar-2023 10:39:29.825",-4.336393,-1.04028,8.693723
"24-Mar-2023 10:39:29.892",-4.318447,-1.06361,8.715857
"24-Mar-2023 10:39:29.959",-4.341777,-1.01336,8.711669
"24-Mar-2023 10:39:30.026",-4.309474,-1.01695,8.718249
"24-Mar-2023 10:39:30.093",-4.335794,-1.001396,8.712267
"24-Mar-2023 10:39:30.160",-4.317849,-1.038485,8.693125
"24-Mar-2023 10:39:30.227",-4.231707,-1.043271,8.730812
"24-Mar-2023 10:39:30.294",-4.342973,-1.01695,8.707481
"24-Mar-2023 10:39:30.361",-4.367499,-0.992423,8.717052
"24-Mar-2023 10:39:30.428",-4.316054,-0.940379,8.703893
"24-Mar-2023 10:39:30.495",-4.29392,-0.996611,8.692527
"24-Mar-2023 10:39:30.562",-4.305286,-0.914058,8.802596
"24-Mar-2023 10:39:30.629",-4.24068,-0.967299,8.774481
"24-Mar-2023 10:39:30.696",-4.296313,-0.982852,8.779266
"24-Mar-2023 10:39:30.763",-4.29751,-0.957129,8.747561
"24-Mar-2023 10:39:30.830",-4.354937,-1.012164,8.765508
"24-Mar-2023 10:39:30.897",-4.295715,-0.968495,8.723633
"24-Mar-2023 10:39:30.964",-4.282554,-1.048655,8.71466
"24-Mar-2023 10:39:31.031",-4.265805,-1.157528,8.784052
"24-Mar-2023 10:39:31.098",-4.325625,-1.198804,8.669795
"24-Mar-2023 10:39:31.165",-4.201797,-1.252643,8.669196
"24-Mar-2023 10:39:31.232",-4.277171,-1.248455,8.66142
"24-Mar-2023 10:39:31.299",-4.325625,-1.230509,8.732008
"24-Mar-2023 10:39:31.366",-4.343571,-1.189233,8.655437
"24-Mar-2023 10:39:31.433",-4.246662,-1.309472,8.683554
"24-Mar-2023 10:39:31.500",-4.296911,-1.21017,8.769096
"24-Mar-2023 10:39:31.567",-4.400401,-1.138984,8.675179
"24-Mar-2023 10:39:31.634",-4.4674,-1.168894,8.507681
"24-Mar-2023 10:39:31.701",-4.460221,-1.301097,8.668598
"24-Mar-2023 10:39:31.768",-4.353741,-1.213759,8.648259
"24-Mar-2023 10:39:31.835",-4.381258,-1.213161,8.635098
"24-Mar-2023 10:39:31.902",-4.406383,-1.2335,8.618947
"24-Mar-2023 10:39:31.969",-4.537988,-1.217349,8.648259
"24-Mar-2023 10:39:32.036",-4.544569,-1.331606,8.650652
"24-Mar-2023 10:39:32.103",-4.441079,-1.255036,8.534002
"24-Mar-2023 10:39:32.170",-4.404588,-1.44706,8.630911
"24-Mar-2023 10:39:32.237",-4.331607,-1.385444,8.614161
"24-Mar-2023 10:39:32.304",-4.399803,-1.202393,8.624929
"24-Mar-2023 10:39:32.371",-4.365705,-1.175474,8.584849
"24-Mar-2023 10:39:32.438",-4.545765,-1.213759,8.590233
"24-Mar-2023 10:39:32.505",-4.615755,-1.238884,8.588439
"24-Mar-2023 10:39:32.572",-4.583452,-1.31366,8.5681
"24-Mar-2023 10:39:32.639",-4.485944,-1.368096,8.529217
"24-Mar-2023 10:39:32.706",-4.462016,-1.411765,8.579466
"24-Mar-2023 10:39:32.773",-4.447659,-1.299303,8.621938
"24-Mar-2023 10:39:32.840",-4.360919,-1.241875,8.653045
"24-Mar-2023 10:39:32.907",-4.335794,-1.170689,8.657232
"24-Mar-2023 10:39:32.974",-4.332804,-1.143171,8.696115
"24-Mar-2023 10:39:33.041",-4.316054,-1.161715,8.702098
"24-Mar-2023 10:39:33.108",-4.261019,-1.176671,8.726624
"24-Mar-2023 10:39:33.175",-4.26401,-1.176072,8.705089
"24-Mar-2023 10:39:33.242",-4.287938,-1.097707,8.768498
"24-Mar-2023 10:39:33.309",-4.266403,-1.070788,8.739784
"24-Mar-2023 10:39:33.376",-4.231707,-1.033101,8.779864
"24-Mar-2023 10:39:33.443",-4.200002,-1.070788,8.760722
"24-Mar-2023 10:39:33.510",-4.167699,-1.060619,8.779266
"24-Mar-2023 10:39:33.577",-4.166502,-1.057628,8.779864
"24-Mar-2023 10:39:33.644",-4.177868,-1.048655,8.769096
"24-Mar-2023 10:39:33.711",-4.219743,-1.048056,8.779864
"24-Mar-2023 10:39:33.778",-4.208975,-1.035494,8.778069
"24-Mar-2023 10:39:33.845",-4.17727,-1.04686,8.780462
"24-Mar-2023 10:39:33.912",-4.185645,-1.052842,8.779864
"24-Mar-2023 10:39:33.979",-4.171886,-1.046262,8.787642
"24-Mar-2023 10:39:34.046",-4.156931,-1.045065,8.752347
"24-Mar-2023 10:39:34.113",-4.189833,-1.064208,8.797213
"24-Mar-2023 10:39:34.180",-4.197011,-1.015753,8.768498
"24-Mar-2023 10:39:34.247",-4.18385,-1.026521,8.778069
"24-Mar-2023 10:39:34.314",-4.181458,-1.066601,8.776276
"24-Mar-2023 10:39:34.381",-4.171288,-1.077967,8.768498
"24-Mar-2023 10:39:34.448",-4.182056,-1.054038,8.767303
"24-Mar-2023 10:39:34.515",-4.180261,-1.04028,8.778668
"24-Mar-2023 10:39:34.582",-4.182654,-1.031905,8.772686
"24-Mar-2023 10:39:34.649",-4.199404,-1.044467,8.787642
"24-Mar-2023 10:39:34.716",-4.161119,-1.055235,8.782257
"24-Mar-2023 10:39:34.783",-4.164708,-1.051646,8.791828
"24-Mar-2023 10:39:34.850",-4.178466,-1.055235,8.774481
"24-Mar-2023 10:39:34.917",-4.189234,-1.057628,8.790632
"24-Mar-2023 10:39:34.984",-4.17727,-1.067797,8.762517
"24-Mar-2023 10:39:35.051",-4.198207,-1.091725,8.786445
"24-Mar-2023 10:39:35.118",-4.201199,-1.066002,8.75773
"24-Mar-2023 10:39:35.185",-4.21077,-1.125823,8.764311
"24-Mar-2023 10:39:35.252",-4.229912,-1.147358,8.733803
"24-Mar-2023 10:39:35.319",-4.237689,-1.173081,8.72782
"24-Mar-2023 10:39:35.386",-4.25384,-1.162314,8.716455
"24-Mar-2023 10:39:35.453",-4.267599,-1.188635,8.735598
"24-Mar-2023 10:39:35.520",-4.25384,-1.223929,8.726026
"24-Mar-2023 10:39:35.587",-4.29392,-1.253241,8.684152
"24-Mar-2023 10:39:35.654",-4.302295,-1.260419,8.678169
"24-Mar-2023 10:39:35.721",-4.295715,-1.241875,8.678169
"24-Mar-2023 10:39:35.788",-4.282554,-1.24008,8.687741
"24-Mar-2023 10:39:35.855",-4.274179,-1.231107,8.663813
"24-Mar-2023 10:39:35.922",-4.281358,-1.236491,8.69492
"24-Mar-2023 10:39:35.989",-4.273581,-1.180858,8.715259
"24-Mar-2023 10:39:36.056",-4.283751,-1.135394,8.741579
"24-Mar-2023 10:39:36.123",-4.263412,-1.118645,8.758329
"24-Mar-2023 10:39:36.190",-4.229314,-1.147358,8.716455
"24-Mar-2023 10:39:36.257",-4.256233,-1.135993,8.741579
"24-Mar-2023 10:39:36.324",-4.204189,-1.086342,8.730213
"24-Mar-2023 10:39:36.391",-4.223332,-1.128216,8.772088
"24-Mar-2023 10:39:36.458",-4.214957,-1.055833,8.761918
"24-Mar-2023 10:39:36.525",-4.21735,-1.076172,8.772686
"24-Mar-2023 10:39:36.592",-4.201797,-1.055235,8.747561
"24-Mar-2023 10:39:36.659",-4.208377,-1.064208,8.777472
"24-Mar-2023 10:39:36.726",-4.186243,-1.060619,8.765508
"24-Mar-2023 10:39:36.793",-4.152744,-1.045663,8.742776
"24-Mar-2023 10:39:36.860",-4.18086,-1.040878,8.794222
"24-Mar-2023 10:39:36.927",-4.192823,-1.03669,8.787043
"24-Mar-2023 10:39:36.994",-4.238287,-1.024128,8.791828
"24-Mar-2023 10:39:37.061",-4.177868,-1.028316,8.778668
"24-Mar-2023 10:39:37.128",-4.152744,-1.056431,8.765508
"24-Mar-2023 10:39:37.195",-4.131806,-1.009771,8.785249
"24-Mar-2023 10:39:37.262",-4.153342,-1.018146,8.805588
"24-Mar-2023 10:39:37.328",-4.158128,-1.012164,8.787043
"24-Mar-2023 10:39:37.396",-4.165904,-1.018744,8.811569
"24-Mar-2023 10:39:37.463",-4.191627,-1.031905,8.813962
"24-Mar-2023 10:39:37.530",-4.185047,-1.044467,8.802596
"24-Mar-2023 10:39:37.597",-4.174877,-1.062413,8.779864
"24-Mar-2023 10:39:37.664",-4.173083,-1.070788,8.807382
"24-Mar-2023 10:39:37.731",-4.153342,-1.109073,8.736794
"24-Mar-2023 10:39:37.798",-4.224528,-1.17009,8.755937
"24-Mar-2023 10:39:37.865",-4.207181,-1.128216,8.747561
"24-Mar-2023 10:39:37.932",-4.235894,-1.15693,8.751749
"24-Mar-2023 10:39:37.999",-4.240082,-1.176072,8.713464
"24-Mar-2023 10:39:38.066",-4.245466,-1.229313,8.684152
"24-Mar-2023 10:39:38.133",-4.261019,-1.276571,8.721839
"24-Mar-2023 10:39:38.200",-4.271188,-1.226322,8.68475
"24-Mar-2023 10:39:38.267",-4.26401,-1.22692,8.681759
"24-Mar-2023 10:39:38.334",-4.274778,-1.21675,8.697312
"24-Mar-2023 10:39:38.401",-4.287938,-1.227518,8.715259
"24-Mar-2023 10:39:38.467",-4.310072,-1.471586,8.836694
"24-Mar-2023 10:39:38.535",-4.202395,-1.010369,8.580662
"24-Mar-2023 10:39:38.602",-4.39741,-0.962513,8.551949
"24-Mar-2023 10:39:38.669",-4.447659,-1.147957,8.700303
"24-Mar-2023 10:39:38.736",-4.301099,-1.073779,8.639884
"24-Mar-2023 10:39:38.803",-4.466204,-0.880559,8.762517
"24-Mar-2023 10:39:38.870",-4.417749,-0.975673,8.675179
"24-Mar-2023 10:39:38.937",-4.456632,-0.96012,8.660822
"24-Mar-2023 10:39:39.004",-4.392026,-1.059422,8.688339
"24-Mar-2023 10:39:39.071",-4.367499,-1.145564,8.700901
"24-Mar-2023 10:39:39.138",-4.402794,-0.921835,8.699107
"24-Mar-2023 10:39:39.205",-4.499105,-1.013959,8.668
"24-Mar-2023 10:39:39.272",-4.393821,-1.058824,8.653045
"24-Mar-2023 10:39:39.339",-4.267001,-1.079163,8.609376
"24-Mar-2023 10:39:39.406",-4.479962,-0.971486,8.753544
"24-Mar-2023 10:39:39.473",-4.415356,-0.982254,8.730213
"24-Mar-2023 10:39:39.540",-4.298706,-0.962513,8.638688
"24-Mar-2023 10:39:39.607",-4.333402,-0.985245,8.688339
"24-Mar-2023 10:39:39.674",-4.382455,-0.973281,8.723633
"24-Mar-2023 10:39:39.741",-4.409972,-0.988834,8.710473
"24-Mar-2023 10:39:39.808",-4.336991,-1.036092,8.691928
"24-Mar-2023 10:39:39.875",-4.411767,-1.1001,8.643474
"24-Mar-2023 10:39:39.942",-4.321438,-1.082752,8.723035
"24-Mar-2023 10:39:40.009",-4.305286,-0.997807,8.747561
"24-Mar-2023 10:39:40.076",-4.305884,-1.125823,8.725428
"24-Mar-2023 10:39:40.143",-4.499105,-1.121636,8.669196
"24-Mar-2023 10:39:40.210",-4.424329,-1.217349,8.644072
"24-Mar-2023 10:39:40.277",-4.453641,-1.262214,8.558528
"24-Mar-2023 10:39:40.344",-4.405187,-1.247857,8.613564
"24-Mar-2023 10:39:40.411",-4.362714,-1.216152,8.612965
"24-Mar-2023 10:39:40.478",-4.389633,-1.267598,8.679964
"24-Mar-2023 10:39:40.545",-4.46082,-1.194018,8.593225
"24-Mar-2023 10:39:40.612",-4.442275,-1.188635,8.568698
"24-Mar-2023 10:39:40.679",-4.431508,-1.177269,8.655437
"24-Mar-2023 10:39:40.746",-4.432704,-1.155733,8.672786
"24-Mar-2023 10:39:40.813",-4.379464,-1.162912,8.635697
"24-Mar-2023 10:39:40.880",-4.382455,-1.152742,8.648259
"24-Mar-2023 10:39:40.947",-4.380062,-1.073181,8.699705
"24-Mar-2023 10:39:41.014",-4.35075,-1.112663,8.657232
"24-Mar-2023 10:39:41.081",-4.368098,-1.061217,8.720642
"24-Mar-2023 10:39:41.148",-4.329215,-1.072583,8.700901
"24-Mar-2023 10:39:41.215",-4.374678,-1.099502,8.703294
"24-Mar-2023 10:39:41.282",-4.351946,-1.074377,8.677571
"24-Mar-2023 10:39:41.349",-4.228117,-1.094118,8.735598
"24-Mar-2023 10:39:41.416",-4.268795,-1.039083,8.740981
"24-Mar-2023 10:39:41.483",-4.302295,-0.952343,8.702098
"24-Mar-2023 10:39:41.550",-4.316652,-0.98345,8.724232
"24-Mar-2023 10:39:41.617",-4.308277,-1.03011,8.72782
"24-Mar-2023 10:39:41.684",-4.261617,-1.064208,8.718249
"24-Mar-2023 10:39:41.751",-4.267599,-1.062413,8.723633
"24-Mar-2023 10:39:41.818",-4.288537,-1.043869,8.732008
"24-Mar-2023 10:39:41.885",-4.285545,-0.984646,8.724232
"24-Mar-2023 10:39:41.952",-4.278367,-0.991825,8.776874
"24-Mar-2023 10:39:42.019",-4.287938,-1.015155,8.752945
"24-Mar-2023 10:39:42.086",-4.278965,-1.052244,8.713464
"24-Mar-2023 10:39:42.153",-4.272385,-1.1001,8.759525
"24-Mar-2023 10:39:42.220",-4.312465,-1.083949,8.725428
"24-Mar-2023 10:39:42.287",-4.268795,-1.067797,8.718847
"24-Mar-2023 10:39:42.354",-4.314857,-1.15693,8.669795
"24-Mar-2023 10:39:42.421",-4.272385,-1.153939,8.724232
"24-Mar-2023 10:39:42.488",-4.338786,-1.238286,8.683554
"24-Mar-2023 10:39:42.555",-4.318447,-1.197608,8.693125
"24-Mar-2023 10:39:42.622",-4.314259,-1.22692,8.669196
"24-Mar-2023 10:39:42.689",-4.332205,-1.26341,8.687741
"24-Mar-2023 10:39:42.756",-4.316054,-1.238286,8.685946
"24-Mar-2023 10:39:42.823",-4.301697,-1.29691,8.671589
"24-Mar-2023 10:39:42.890",-4.288537,-1.267,8.65125
"24-Mar-2023 10:39:42.957",-4.331009,-1.283151,8.674581
"24-Mar-2023 10:39:43.024",-4.341777,-1.277767,8.653045
"24-Mar-2023 10:39:43.091",-4.310072,-1.265803,8.708079
"24-Mar-2023 10:39:43.158",-4.272385,-1.235295,8.650652
"24-Mar-2023 10:39:43.225",-4.214359,-1.265205,8.715857
"24-Mar-2023 10:39:43.292",-4.425526,-1.191028,8.702098
"24-Mar-2023 10:39:43.359",-4.278965,-1.16351,8.686544
"24-Mar-2023 10:39:43.426",-4.281358,-1.130609,8.72782
"24-Mar-2023 10:39:43.493",-4.231707,-1.116252,8.739784
"24-Mar-2023 10:39:43.560",-4.220341,-1.114457,8.743374
"24-Mar-2023 10:39:43.627",-4.231707,-1.08335,8.757133
"24-Mar-2023 10:39:43.694",-4.256832,-1.059422,8.747561
"24-Mar-2023 10:39:43.761",-4.223332,-1.066601,8.769096
"24-Mar-2023 10:39:43.828",-4.265805,-1.058226,8.748757
"24-Mar-2023 10:39:43.895",-4.192823,-1.06002,8.752945
"24-Mar-2023 10:39:43.962",-4.172484,-1.028316,8.783454
"24-Mar-2023 10:39:44.029",-4.194618,-1.028316,8.769695
"24-Mar-2023 10:39:44.096",-4.228716,-1.039083,8.772686
"24-Mar-2023 10:39:44.163",-4.188038,-1.024726,8.729615
"24-Mar-2023 10:39:44.230",-4.216154,-1.050449,8.784052
"24-Mar-2023 10:39:44.297",-4.19402,-0.985245,8.78465
"24-Mar-2023 10:39:44.364",-4.189833,-0.994218,8.798409
"24-Mar-2023 10:39:44.431",-4.188636,-0.974477,8.784052
"24-Mar-2023 10:39:44.498",-4.164708,-0.996012,8.766106
"24-Mar-2023 10:39:44.565",-4.185047,-1.009173,8.804391
"24-Mar-2023 10:39:44.632",-4.197011,-0.982852,8.816355
"24-Mar-2023 10:39:44.699",-4.211368,-0.993021,8.767303
"24-Mar-2023 10:39:44.766",-4.185047,-1.005584,8.781061
"24-Mar-2023 10:39:44.833",-4.2006,-1.045663,8.764311
"24-Mar-2023 10:39:44.900",-4.232903,-1.074976,8.763115
"24-Mar-2023 10:39:44.967",-4.254439,-1.096511,8.728418
"24-Mar-2023 10:39:45.034",-4.273581,-1.136591,8.717651
"24-Mar-2023 10:39:45.101",-4.284349,-1.137787,8.727222
"24-Mar-2023 10:39:45.168",-4.283751,-1.157528,8.684152
"24-Mar-2023 10:39:45.235",-4.324429,-1.236491,8.688339
"24-Mar-2023 10:39:45.302",-4.299304,-1.168296,8.674581
"24-Mar-2023 10:39:45.369",-4.315455,-1.172483,8.657232
"24-Mar-2023 10:39:45.436",-4.319643,-1.17009,8.688339
"24-Mar-2023 10:39:45.503",-4.338786,-1.205983,8.712866
"24-Mar-2023 10:39:45.570",-4.310072,-1.178465,8.716455
"24-Mar-2023 10:39:45.637",-4.302295,-1.128814,8.695518
"24-Mar-2023 10:39:45.704",-4.292724,-1.155135,8.696713
"24-Mar-2023 10:39:45.771",-4.31725,-1.156332,8.728418
"24-Mar-2023 10:39:45.838",-4.287938,-1.127618,8.711669
"24-Mar-2023 10:39:45.905",-4.347759,-1.128216,8.687741
"24-Mar-2023 10:39:45.972",-4.329215,-1.150948,8.687142
"24-Mar-2023 10:39:46.039",-4.311866,-1.124627,8.684152
"24-Mar-2023 10:39:46.106",-4.322634,-1.111466,8.669196
"24-Mar-2023 10:39:46.173",-4.283751,-1.134796,8.736794
"24-Mar-2023 10:39:46.240",-4.303492,-1.076172,8.734401
"24-Mar-2023 10:39:46.307",-4.291527,-1.025923,8.745767
"24-Mar-2023 10:39:46.374",-4.296911,-1.052244,8.702696
"24-Mar-2023 10:39:46.441",-4.273581,-1.042074,8.741579
"24-Mar-2023 10:39:46.508",-4.231707,-1.052842,8.736794
"24-Mar-2023 10:39:46.575",-4.252046,-1.019342,8.744571
"24-Mar-2023 10:39:46.642",-4.232305,-0.984646,8.75773
"24-Mar-2023 10:39:46.709",-4.267001,-0.987039,8.75773
"24-Mar-2023 10:39:46.776",-4.244867,-0.981655,8.748159
"24-Mar-2023 10:39:46.843",-4.221537,-1.001994,8.775079
"24-Mar-2023 10:39:46.910",-4.220341,-0.991825,8.766106
"24-Mar-2023 10:39:46.977",-4.228117,-0.984048,8.754142
"24-Mar-2023 10:39:47.044",-4.231109,-0.981655,8.76491
"24-Mar-2023 10:39:47.111",-4.23051,-0.967299,8.75474
"24-Mar-2023 10:39:47.178",-4.221537,-1.01336,8.792427
"24-Mar-2023 10:39:47.245",-4.194618,-1.038485,8.804391
"24-Mar-2023 10:39:47.312",-4.298706,-0.902094,8.718847
"24-Mar-2023 10:39:47.379",-4.211368,-1.016351,8.722437
"24-Mar-2023 10:39:47.446",-4.34058,-1.015753,8.768498
"24-Mar-2023 10:39:47.513",-4.291527,-1.064208,8.69133
"24-Mar-2023 10:39:47.580",-4.317849,-1.115654,8.711669
"24-Mar-2023 10:39:47.647",-4.383053,-1.139582,8.696713
"24-Mar-2023 10:39:47.714",-4.358526,-1.1336,8.700303
"24-Mar-2023 10:39:47.781",-4.332804,-1.136591,8.688937
"24-Mar-2023 10:39:47.848",-4.311268,-1.154537,8.683554
"24-Mar-2023 10:39:47.915",-4.329813,-1.191028,8.68475
"24-Mar-2023 10:39:47.982",-4.372285,-1.197608,8.63809
"24-Mar-2023 10:39:48.049",-4.406383,-1.211366,8.625527
"24-Mar-2023 10:39:48.116",-4.416553,-1.216152,8.602796
"24-Mar-2023 10:39:48.183",-4.401597,-1.251446,8.63151
"24-Mar-2023 10:39:48.250",-4.406383,-1.220938,8.638688
"24-Mar-2023 10:39:48.317",-4.389633,-1.164706,8.658429
"24-Mar-2023 10:39:48.384",-4.381856,-1.159921,8.666803
"24-Mar-2023 10:39:48.451",-4.369294,-1.141975,8.672786
"24-Mar-2023 10:39:48.518",-4.368696,-1.121636,8.669196
"24-Mar-2023 10:39:48.585",-4.366901,-1.106082,8.670393
"24-Mar-2023 10:39:48.652",-4.341178,-1.069592,8.705687
"24-Mar-2023 10:39:48.719",-4.314857,-1.062413,8.716455
"24-Mar-2023 10:39:48.786",-4.343571,-1.080958,8.775079
"24-Mar-2023 10:39:48.853",-4.295116,-1.032503,8.711071
"24-Mar-2023 10:39:48.920",-4.418347,-0.934995,8.665009
"24-Mar-2023 10:39:48.987",-4.468596,-0.920639,8.733205
"24-Mar-2023 10:39:49.054",-4.375875,-0.829113,8.626724
"24-Mar-2023 10:39:49.121",-4.241876,-1.074377,8.742776
"24-Mar-2023 10:39:49.188",-4.283751,-0.968495,8.752347
"24-Mar-2023 10:39:49.255",-4.341777,-0.985245,8.68475
"24-Mar-2023 10:39:49.322",-4.478766,-0.962513,8.65484
"24-Mar-2023 10:39:49.389",-4.453043,-0.917049,8.659625
"24-Mar-2023 10:39:49.456",-4.413561,-0.841675,8.684152
"24-Mar-2023 10:39:49.523",-4.393222,-0.894317,8.705687
"24-Mar-2023 10:39:49.590",-4.451847,-0.916451,8.630911
"24-Mar-2023 10:39:49.657",-4.470391,-0.960718,8.740383
"24-Mar-2023 10:39:49.724",-4.481757,-0.722034,8.63809
"24-Mar-2023 10:39:49.791",-4.5673,-0.723231,8.548957
"24-Mar-2023 10:39:49.858",-4.670192,-0.607179,8.538788
"24-Mar-2023 10:39:49.925",-4.743771,-0.697508,8.620144
"24-Mar-2023 10:39:49.992",-4.579863,-0.66999,8.590233
"24-Mar-2023 10:39:50.059",-4.645665,-0.636491,8.667402
"24-Mar-2023 10:39:50.126",-4.728816,-0.672383,8.505288
"24-Mar-2023 10:39:50.193",-4.782056,-0.648455,8.473583
"24-Mar-2023 10:39:50.260",-4.80419,-0.716052,8.455039
"24-Mar-2023 10:39:50.327",-4.79402,-0.716052,8.482556
"24-Mar-2023 10:39:50.394",-4.815556,-0.678963,8.497512
"24-Mar-2023 10:39:50.461",-4.773681,-0.702892,8.511271
"24-Mar-2023 10:39:50.528",-4.782056,-0.652642,8.508279
"24-Mar-2023 10:39:50.595",-4.811966,-0.644267,8.490932
"24-Mar-2023 10:39:50.662",-4.813163,-0.637687,8.475378
"24-Mar-2023 10:39:50.729",-4.815556,-0.649053,8.493922
"24-Mar-2023 10:39:50.796",-4.808975,-0.631107,8.493324
"24-Mar-2023 10:39:50.863",-4.840082,-0.659223,8.470592
"24-Mar-2023 10:39:50.930",-4.835296,-0.62692,8.495118
"24-Mar-2023 10:39:50.997",-4.856234,-0.606581,8.467601
"24-Mar-2023 10:39:51.064",-4.831707,-0.531805,8.547761
"24-Mar-2023 10:39:51.131",-4.808975,-0.638884,8.496315
"24-Mar-2023 10:39:51.198",-4.820341,-0.57009,8.495717
"24-Mar-2023 10:39:51.265",-4.841877,-0.588634,8.486744
"24-Mar-2023 10:39:51.332",-4.8341,-0.637687,8.416754
"24-Mar-2023 10:39:51.399",-4.822734,-0.631705,8.455039
"24-Mar-2023 10:39:51.466",-4.805984,-0.549751,8.440681
"24-Mar-2023 10:39:51.533",-4.841279,-0.585643,8.50469
"24-Mar-2023 10:39:51.600",-4.834698,-0.558724,8.50469
"24-Mar-2023 10:39:51.667",-4.853242,-0.571286,8.492127
"24-Mar-2023 10:39:51.734",-4.855037,-0.534198,8.456235
"24-Mar-2023 10:39:51.801",-4.832305,-0.555135,8.455637
"24-Mar-2023 10:39:51.868",-4.741976,-0.498904,8.502297
"24-Mar-2023 10:39:51.935",-4.759324,-0.510269,8.560323
"24-Mar-2023 10:39:52.002",-4.75753,-0.539581,8.571689
"24-Mar-2023 10:39:52.069",-4.759923,-0.605982,8.485547
"24-Mar-2023 10:39:52.136",-4.882555,-0.651446,8.472386
"24-Mar-2023 10:39:52.203",-4.849653,-0.601795,8.481359
"24-Mar-2023 10:39:52.270",-4.805386,-0.701097,8.517252
"24-Mar-2023 10:39:52.337",-4.746762,-0.732802,8.417352
"24-Mar-2023 10:39:52.404",-4.876573,-0.498904,8.489735
"24-Mar-2023 10:39:52.471",-4.749155,-0.714258,8.495717
"24-Mar-2023 10:39:52.538",-4.659424,-0.716052,8.548359
"24-Mar-2023 10:39:52.605",-4.80419,-0.787837,8.485547
"24-Mar-2023 10:39:52.672",-4.94058,-0.808774,8.432905
"24-Mar-2023 10:39:52.739",-4.828716,-0.764507,8.408977
"24-Mar-2023 10:39:52.806",-4.789833,-0.751945,8.46102
"24-Mar-2023 10:39:52.873",-4.829314,-0.769292,8.472386
"24-Mar-2023 10:39:52.940",-4.8341,-0.751346,8.474779
"24-Mar-2023 10:39:53.007",-4.798806,-0.758525,8.471788
"24-Mar-2023 10:39:53.074",-4.807181,-0.763909,8.462815
"24-Mar-2023 10:39:53.141",-4.82752,-0.738784,8.483752
"24-Mar-2023 10:39:53.208",-4.79402,-0.712463,8.483154
"24-Mar-2023 10:39:53.275",-4.795217,-0.696311,8.493922
"24-Mar-2023 10:39:53.342",-4.770092,-0.719641,8.499306
"24-Mar-2023 10:39:53.409",-4.777869,-0.715454,8.49811
"24-Mar-2023 10:39:53.476",-4.774878,-0.690329,8.503493
"24-Mar-2023 10:39:53.543",-4.777869,-0.675972,8.518449
"24-Mar-2023 10:39:53.610",-4.734798,-0.649053,8.525029
"24-Mar-2023 10:39:53.677",-4.744967,-0.678963,8.528618
"24-Mar-2023 10:39:53.744",-4.749155,-0.6335,8.535796
"24-Mar-2023 10:39:53.811",-4.738387,-0.629911,8.52802
"24-Mar-2023 10:39:53.878",-4.746762,-0.647259,8.532805
"24-Mar-2023 10:39:53.945",-4.733003,-0.641276,8.523234
"24-Mar-2023 10:39:54.012",-4.71087,-0.625723,8.544769
"24-Mar-2023 10:39:54.079",-4.716253,-0.61675,8.55135
"24-Mar-2023 10:39:54.146",-4.727619,-0.621536,8.536993
"24-Mar-2023 10:39:54.213",-4.728218,-0.629312,8.544769
"24-Mar-2023 10:39:54.280",-4.732405,-0.628714,8.547761
"24-Mar-2023 10:39:54.347",-4.704887,-0.646062,8.517851
"24-Mar-2023 10:39:54.414",-4.727619,-0.64008,8.555537
"24-Mar-2023 10:39:54.481",-4.70728,-0.620937,8.532207
"24-Mar-2023 10:39:54.548",-4.691727,-0.629911,8.520842
"24-Mar-2023 10:39:54.615",-4.723432,-0.647259,8.542975
"24-Mar-2023 10:39:54.682",-4.709673,-0.607777,8.568698
"24-Mar-2023 10:39:54.749",-4.706682,-0.619143,8.547162
"24-Mar-2023 10:39:54.816",-4.697709,-0.629312,8.526823
"24-Mar-2023 10:39:54.883",-4.698905,-0.639482,8.548359
"24-Mar-2023 10:39:54.950",-4.703093,-0.694517,8.559725
"24-Mar-2023 10:39:55.017",-4.708477,-0.665205,8.589037
"24-Mar-2023 10:39:55.084",-4.728816,-0.661615,8.508279
"24-Mar-2023 10:39:55.151",-4.745565,-0.698704,8.535198
"24-Mar-2023 10:39:55.218",-4.705486,-0.736989,8.526823
"24-Mar-2023 10:39:55.285",-4.703691,-0.748953,8.523234
"24-Mar-2023 10:39:55.352",-4.716253,-0.736391,8.517252
"24-Mar-2023 10:39:55.419",-4.746762,-0.783649,8.510672
"24-Mar-2023 10:39:55.486",-4.743771,-0.769292,8.480762
"24-Mar-2023 10:39:55.553",-4.752146,-0.835095,8.517851
"24-Mar-2023 10:39:55.620",-4.736592,-0.756132,8.513064
"24-Mar-2023 10:39:55.687",-4.735396,-0.753141,8.499905
"24-Mar-2023 10:39:55.754",-4.725226,-0.795614,8.525627
"24-Mar-2023 10:39:55.821",-4.728816,-0.776471,8.48794
"24-Mar-2023 10:39:55.888",-4.76052,-0.770489,8.525029
"24-Mar-2023 10:39:55.955",-4.754539,-0.72024,8.552547
"24-Mar-2023 10:39:56.022",-4.728816,-0.731606,8.545368
"24-Mar-2023 10:39:56.089",-4.727619,-0.736989,8.510074
"24-Mar-2023 10:39:56.156",-4.739583,-0.720838,8.523832
"24-Mar-2023 10:39:56.223",-4.705486,-0.725025,8.538788
"24-Mar-2023 10:39:56.290",-4.696513,-0.710668,8.545368
"24-Mar-2023 10:39:56.357",-4.712066,-0.68674,8.539386
"24-Mar-2023 10:39:56.424",-4.700102,-0.69691,8.549556
"24-Mar-2023 10:39:56.491",-4.698307,-0.666401,8.565108
"24-Mar-2023 10:39:56.558",-4.696513,-0.64666,8.566305
"24-Mar-2023 10:39:56.625",-4.679165,-0.652044,8.556135
"24-Mar-2023 10:39:56.692",-4.671986,-0.681954,8.556734
"24-Mar-2023 10:39:56.759",-4.673781,-0.661615,8.572886
"24-Mar-2023 10:39:56.826",-4.661817,-0.641875,8.562118
"24-Mar-2023 10:39:56.893",-4.681558,-0.645464,8.578867
"24-Mar-2023 10:39:56.960",-4.658826,-0.629911,8.551949
"24-Mar-2023 10:39:57.027",-4.692325,-0.659821,8.574081
"24-Mar-2023 10:39:57.094",-4.656433,-0.647857,8.569296
"24-Mar-2023 10:39:57.161",-4.635496,-0.665803,8.562118
"24-Mar-2023 10:39:57.228",-4.682156,-0.61017,8.557332
"24-Mar-2023 10:39:57.295",-4.679763,-0.659223,8.559127
"24-Mar-2023 10:39:57.362",-4.658227,-0.656232,8.587242
"24-Mar-2023 10:39:57.429",-4.666004,-0.675972,8.563912
"24-Mar-2023 10:39:57.496",-4.694718,-0.644267,8.583653
"24-Mar-2023 10:39:57.563",-4.657629,-0.625125,8.59143
"24-Mar-2023 10:39:57.630",-4.699504,-0.594018,8.542377
"24-Mar-2023 10:39:57.697",-4.667201,-0.630509,8.557332
"24-Mar-2023 10:39:57.764",-4.673781,-0.619741,8.574081
"24-Mar-2023 10:39:57.831",-4.695914,-0.635893,8.547761
"24-Mar-2023 10:39:57.898",-4.70728,-0.653241,8.547761
"24-Mar-2023 10:39:57.965",-4.726423,-0.691526,8.550752
"24-Mar-2023 10:39:58.032",-4.716852,-0.686142,8.510672
"24-Mar-2023 10:39:58.099",-4.719842,-0.725025,8.520244
"24-Mar-2023 10:39:58.165",-4.710271,-0.690928,8.538788
"24-Mar-2023 10:39:58.232",-4.726423,-0.684347,8.522038
"24-Mar-2023 10:39:58.299",-4.733602,-0.712463,8.550154
"24-Mar-2023 10:39:58.366",-4.72403,-0.661017,8.550154
"24-Mar-2023 10:39:58.433",-4.749155,-0.675972,8.539386
"24-Mar-2023 10:39:58.500",-4.715655,-0.637089,8.513064
"24-Mar-2023 10:39:58.567",-4.742575,-0.730409,8.541181
"24-Mar-2023 10:39:58.634",-4.725226,-0.715454,8.514859
"24-Mar-2023 10:39:58.701",-4.696513,-0.66999,8.510074
"24-Mar-2023 10:39:58.768",-4.702495,-0.677169,8.534002
"24-Mar-2023 10:39:58.835",-4.725825,-0.647857,8.558528
"24-Mar-2023 10:39:58.902",-4.705486,-0.652044,8.547162
"24-Mar-2023 10:39:58.969",-4.691727,-0.640678,8.569296
"24-Mar-2023 10:39:59.036",-4.676174,-0.634696,8.569894
"24-Mar-2023 10:39:59.103",-4.674379,-0.643071,8.582457
"24-Mar-2023 10:39:59.169",-4.657629,-0.618545,8.560922
"24-Mar-2023 10:39:59.237",-4.64746,-0.631107,8.595019
"24-Mar-2023 10:39:59.304",-4.652246,-0.579063,8.602198
"24-Mar-2023 10:39:59.371",-4.655835,-0.582054,8.59801
"24-Mar-2023 10:39:59.438",-4.649853,-0.607777,8.567501
"24-Mar-2023 10:39:59.505",-4.64387,-0.608375,8.585447
"24-Mar-2023 10:39:59.572",-4.633701,-0.607179,8.592627
"24-Mar-2023 10:39:59.639",-4.634299,-0.584447,8.586046
"24-Mar-2023 10:39:59.706",-4.629514,-0.602393,8.587242
"24-Mar-2023 10:39:59.773",-4.63071,-0.595813,8.601599
"24-Mar-2023 10:39:59.840",-4.64088,-0.587438,8.593822
"24-Mar-2023 10:39:59.907",-4.631308,-0.594018,8.596813
"24-Mar-2023 10:39:59.974",-4.642076,-0.605982,8.593822
"24-Mar-2023 10:40:00.041",-4.625925,-0.595215,8.611769
"24-Mar-2023 10:40:00.108",-4.620541,-0.61675,8.590233
"24-Mar-2023 10:40:00.175",-4.618746,-0.616152,8.603992
"24-Mar-2023 10:40:00.242",-4.648656,-0.635294,8.603992
"24-Mar-2023 10:40:00.308",-4.651647,-0.625125,8.572886
"24-Mar-2023 10:40:00.376",-4.633701,-0.62333,8.611769
"24-Mar-2023 10:40:00.443",-4.626523,-0.66999,8.585447
"24-Mar-2023 10:40:00.510",-4.666004,-0.692124,8.545368
"24-Mar-2023 10:40:00.577",-4.633701,-0.70349,8.595019
"24-Mar-2023 10:40:00.644",-4.62413,-0.707079,8.562118
"24-Mar-2023 10:40:00.711",-4.660022,-0.68674,8.456235
"24-Mar-2023 10:40:00.778",-4.716852,-0.708874,8.638688
