Timestamp,X,Y,Z
"24-Apr-2023 12:18:12.966",-4.539185,-8.673384,0.458824
"24-Apr-2023 12:18:13.033",-4.515256,-8.671589,0.448654
"24-Apr-2023 12:18:13.100",-4.611567,-8.618349,0.463609
"24-Apr-2023 12:18:13.167",-4.591826,-8.595617,0.480359
"24-Apr-2023 12:18:13.234",-4.533203,-8.68475,0.488136
"24-Apr-2023 12:18:13.301",-4.536193,-8.65783,0.484547
"24-Apr-2023 12:18:13.368",-4.52064,-8.63809,0.509671
"24-Apr-2023 12:18:13.435",-4.587041,-8.608179,0.612563
"24-Apr-2023 12:18:13.502",-4.516453,-8.666803,0.556929
"24-Apr-2023 12:18:13.569",-4.396214,-8.690134,0.543769
"24-Apr-2023 12:18:13.636",-4.574479,-8.565707,0.716052
"24-Apr-2023 12:18:13.703",-4.649254,-8.563912,0.678365
"24-Apr-2023 12:18:13.770",-4.597809,-8.678169,0.390628
"24-Apr-2023 12:18:13.837",-4.534997,-8.722437,0.192622
"24-Apr-2023 12:18:13.904",-4.582255,-8.607581,0.206979
"24-Apr-2023 12:18:13.971",-4.651647,-8.619545,0.178863
"24-Apr-2023 12:18:14.038",-4.493721,-8.720642,0.17348
"24-Apr-2023 12:18:14.105",-4.472784,-8.692527,0.201595
"24-Apr-2023 12:18:14.172",-4.532006,-8.63809,0.206979
"24-Apr-2023 12:18:14.239",-4.303492,-8.806186,0.175274
"24-Apr-2023 12:18:14.306",-4.28734,-8.816355,0.125025
"24-Apr-2023 12:18:14.373",-4.399803,-8.736794,0.095115
"24-Apr-2023 12:18:14.440",-4.399204,-8.751151,0.15015
"24-Apr-2023 12:18:14.507",-4.248456,-8.839685,0.134596
"24-Apr-2023 12:18:14.574",-4.281956,-8.812167,0.104088
"24-Apr-2023 12:18:14.641",-4.395017,-8.763713,0.092722
"24-Apr-2023 12:18:14.708",-4.466802,-8.728418,0.120838
"24-Apr-2023 12:18:14.775",-4.371089,-8.757133,0.129811
"24-Apr-2023 12:18:14.842",-4.284947,-8.8014,0.129212
"24-Apr-2023 12:18:14.909",-4.312465,-8.805588,0.155533
"24-Apr-2023 12:18:14.976",-4.416553,-8.729017,0.171087
"24-Apr-2023 12:18:15.043",-4.517649,-8.690134,0.236889
"24-Apr-2023 12:18:15.110",-4.544569,-8.690732,0.263809
"24-Apr-2023 12:18:15.177",-4.447659,-8.690732,0.262014
"24-Apr-2023 12:18:15.244",-4.533203,-8.683554,0.436092
"24-Apr-2023 12:18:15.311",-4.456632,-8.675179,0.378664
"24-Apr-2023 12:18:15.378",-4.554738,-8.581261,0.348156
"24-Apr-2023 12:18:15.445",-4.501498,-8.66142,0.43011
"24-Apr-2023 12:18:15.512",-4.553542,-8.612965,0.478565
"24-Apr-2023 12:18:15.579",-4.492525,-8.696115,0.443869
"24-Apr-2023 12:18:15.646",-4.490132,-8.699705,0.479761
"24-Apr-2023 12:18:15.713",-4.515854,-8.649456,0.500698
"24-Apr-2023 12:18:15.779",-4.578666,-8.663215,0.457029
"24-Apr-2023 12:18:15.847",-4.579863,-8.632108,0.527617
"24-Apr-2023 12:18:15.914",-4.564309,-8.648857,0.545564
"24-Apr-2023 12:18:16.031",-4.587639,-8.647661,0.631705
"24-Apr-2023 12:18:16.047",-4.583452,-8.614161,0.611964
"24-Apr-2023 12:18:16.114",-4.5673,-8.633304,0.622732
"24-Apr-2023 12:18:16.181",-4.561318,-8.626724,0.596411
"24-Apr-2023 12:18:16.248",-4.544569,-8.659027,0.596411
"24-Apr-2023 12:18:16.315",-4.596612,-8.626724,0.613759
"24-Apr-2023 12:18:16.382",-4.660022,-8.589037,0.684347
"24-Apr-2023 12:18:16.449",-4.642674,-8.589037,0.68674
"24-Apr-2023 12:18:16.516",-4.610371,-8.603394,0.741177
"24-Apr-2023 12:18:16.583",-4.567898,-8.641081,0.769292
"24-Apr-2023 12:18:16.650",-4.575077,-8.602796,0.737588
"24-Apr-2023 12:18:16.717",-4.666602,-8.573483,0.774676
"24-Apr-2023 12:18:16.784",-4.714459,-8.556135,0.728016
"24-Apr-2023 12:18:16.851",-4.651647,-8.599206,0.750748
"24-Apr-2023 12:18:16.918",-4.686941,-8.581261,0.876371
"24-Apr-2023 12:18:16.985",-4.730012,-8.527422,0.902692
"24-Apr-2023 12:18:17.052",-4.666004,-8.633304,0.966102
"24-Apr-2023 12:18:17.119",-4.476373,-8.697312,1.048655
"24-Apr-2023 12:18:17.186",-4.468596,-8.69133,1.16351
"24-Apr-2023 12:18:17.253",-4.400999,-8.700901,1.211965
"24-Apr-2023 12:18:17.320",-4.302893,-8.679964,1.355534
"24-Apr-2023 12:18:17.387",-4.454837,-8.881559,1.674378
"24-Apr-2023 12:18:17.454",-4.366901,-8.822935,1.947758
"24-Apr-2023 12:18:17.521",-4.320241,-8.30788,2.140978
"24-Apr-2023 12:18:17.588",-4.478168,-8.472985,2.257628
"24-Apr-2023 12:18:17.655",-4.131806,-8.639884,2.152344
"24-Apr-2023 12:18:17.722",-4.17069,-8.771489,2.282155
"24-Apr-2023 12:18:17.789",-4.485944,-8.311469,2.332404
"24-Apr-2023 12:18:17.856",-4.278367,-8.227122,2.443072
"24-Apr-2023 12:18:17.923",-4.111467,-8.291729,2.512464
"24-Apr-2023 12:18:17.990",-4.176672,-8.244471,2.848655
"24-Apr-2023 12:18:18.057",-4.571487,-7.857431,2.92044
"24-Apr-2023 12:18:18.124",-4.546961,-7.713862,3.006582
"24-Apr-2023 12:18:18.191",-4.1007,-7.20778,2.821736
"24-Apr-2023 12:18:18.258",-3.544967,-6.308677,2.453241
"24-Apr-2023 12:18:18.325",-2.578865,-4.887938,1.481755
"24-Apr-2023 12:18:18.392",-1.743171,-4.068397,0.514457
"24-Apr-2023 12:18:18.476",-0.738784,-4.306482,0.90688
"24-Apr-2023 12:18:18.492",-1.235295,-5.466403,-0.208774
"24-Apr-2023 12:18:18.559",-0.977468,-1.70369,0.951147
"24-Apr-2023 12:18:18.626",11.122437,12.809378,31.92803
"24-Apr-2023 12:18:18.693",9.013762,11.538191,22.701307
"24-Apr-2023 12:18:18.760",3.753741,9.920643,8.086544
"24-Apr-2023 12:18:18.827",1.286142,4.758726,3.940381
"24-Apr-2023 12:18:18.894",2.267798,4.044468,3.38704
"24-Apr-2023 12:18:18.961",2.593221,6.055037,5.006383
"24-Apr-2023 12:18:19.028",3.748955,6.133403,7.692925
"24-Apr-2023 12:18:19.095",3.793222,6.467201,9.12503
"24-Apr-2023 12:18:19.162",4.024728,5.321039,9.110074
"24-Apr-2023 12:18:19.229",3.363112,3.45404,8.366505
"24-Apr-2023 12:18:19.296",2.867798,3.17707,8.433503
"24-Apr-2023 12:18:19.363",1.867598,2.642873,8.801998
"24-Apr-2023 12:18:19.430",2.039283,2.739184,9.180662
"24-Apr-2023 12:18:19.497",1.633101,2.92044,9.081959
"24-Apr-2023 12:18:19.564",1.514058,3.283551,8.821739
"24-Apr-2023 12:18:19.631",1.403391,3.539583,8.98804
"24-Apr-2023 12:18:19.698",1.348954,4.074379,9.142975
"24-Apr-2023 12:18:19.765",1.330409,4.244867,8.996415
"24-Apr-2023 12:18:19.832",1.268196,3.860221,8.757133
"24-Apr-2023 12:18:19.899",1.147957,3.744169,9.01795
"24-Apr-2023 12:18:19.966",0.793221,3.526422,9.126225
"24-Apr-2023 12:18:20.033",0.698106,3.415156,9.360723
"24-Apr-2023 12:18:20.100",1.042074,3.214757,9.108877
"24-Apr-2023 12:18:20.167",0.943969,3.039483,9.343374
"24-Apr-2023 12:18:20.234",0.96012,3.29731,9.293723
"24-Apr-2023 12:18:20.301",0.873978,3.326622,9.139386
"24-Apr-2023 12:18:20.368",1.121636,3.320041,9.163314
"24-Apr-2023 12:18:20.435",1.217349,3.081956,9.170493
"24-Apr-2023 12:18:20.502",1.185045,2.980261,9.244072
"24-Apr-2023 12:18:20.569",1.091725,3.033501,9.296714
"24-Apr-2023 12:18:20.636",0.856032,2.994617,9.069994
"24-Apr-2023 12:18:20.703",1.359721,3.108277,9.196814
"24-Apr-2023 12:18:20.770",1.295115,3.011367,9.404989
"24-Apr-2023 12:18:20.837",1.063011,3.008975,9.307482
"24-Apr-2023 12:18:20.904",0.958325,2.961716,9.11486
"24-Apr-2023 12:18:20.971",1.157528,3.047858,9.186645
"24-Apr-2023 12:18:21.038",1.017548,3.175874,9.301499
"24-Apr-2023 12:18:21.105",1.010369,3.237489,9.233903
"24-Apr-2023 12:18:21.172",1.020539,3.205784,9.215957
"24-Apr-2023 12:18:21.239",1.081556,3.251248,9.236894
"24-Apr-2023 12:18:21.306",1.206581,3.142374,9.256635
"24-Apr-2023 12:18:21.373",1.08694,3.10708,9.208179
"24-Apr-2023 12:18:21.440",1.047458,3.180061,9.262018
"24-Apr-2023 12:18:21.507",1.079163,3.108875,9.241679
"24-Apr-2023 12:18:21.574",1.204786,3.138187,9.308679
"24-Apr-2023 12:18:21.641",1.058226,3.195615,9.302696
"24-Apr-2023 12:18:21.708",1.14676,3.294319,9.232108
"24-Apr-2023 12:18:21.775",1.068994,3.199204,9.196814
"24-Apr-2023 12:18:21.842",1.128814,3.151946,9.189037
"24-Apr-2023 12:18:21.909",0.999003,3.215954,9.188439
"24-Apr-2023 12:18:21.976",0.994218,3.364309,9.287143
"24-Apr-2023 12:18:22.043",1.073181,3.354139,9.18126
"24-Apr-2023 12:18:22.109",1.094716,3.249453,9.063414
"24-Apr-2023 12:18:22.177",0.991825,3.435495,9.153145
"24-Apr-2023 12:18:22.244",0.965504,3.391826,9.243474
"24-Apr-2023 12:18:22.311",0.972682,3.328416,9.180064
"24-Apr-2023 12:18:22.378",1.041476,3.286542,9.207582
"24-Apr-2023 12:18:22.445",1.03011,3.338586,9.202198
"24-Apr-2023 12:18:22.512",1.039681,3.259623,9.266804
"24-Apr-2023 12:18:22.579",1.113859,3.279962,9.249456
"24-Apr-2023 12:18:22.646",1.131805,3.286542,9.133404
"24-Apr-2023 12:18:22.713",1.090529,3.251846,9.134601
"24-Apr-2023 12:18:22.780",1.055833,3.228516,9.243474
"24-Apr-2023 12:18:22.847",1.025324,3.247658,9.22493
"24-Apr-2023 12:18:22.914",1.1001,3.367898,9.24826
"24-Apr-2023 12:18:22.981",0.934995,3.279363,9.200403
"24-Apr-2023 12:18:23.048",0.944567,3.272783,9.209376
"24-Apr-2023 12:18:23.182",1.05344,3.141776,9.068798
